<?xml version="1.0" standalone="no"?>
<!DOCTYPE svg PUBLIC "-//W3C//DTD SVG 1.1//EN" "http://www.w3.org/Graphics/SVG/1.1/DTD/svg11.dtd" >
<svg xmlns="http://www.w3.org/2000/svg" xmlns:xlink="http://www.w3.org/1999/xlink" version="1.1">
<metadata>
Created by FontForge 20160405 at Mon Sep 17 06:15:05 2018
 By www-data
 The digitally encoded machine readable software for producing the
 Typefaces licensed to you is copyrighted (c) 1989, 1995, 2002 Adobe Systems.
 All Rights Reserved. This software is the property of Adobe Systems
 Incorporated and its licensors, and may not be reproduced, used, 
 displayed, modified, disclosed or transferred without the express 
 written approval of Adobe.
 
 The digitally encoded machine readable outline data for producing the Typefaces 
 provided as part of your laser printer is copyrighted (c) 1981, 1995, 2002 Heidelberger Druckmaschinen AG. 
 All rights reserved. This data is the property of Heidelberger Druckmaschinen AG, 
 and may not be reproduced, used, displayed, modified, disclosed or transferred 
 without the express written approval of Heidelberger Druckmaschinen AG. 
</metadata>
<defs>
<font id="AvenirLTStd-Medium" horiz-adv-x="556" >
  <font-face 
    font-family="Avenir LT Std"
    font-weight="600"
    font-stretch="normal"
    units-per-em="1000"
    panose-1="2 11 6 3 2 2 3 2 2 4"
    ascent="756"
    descent="-244"
    x-height="474"
    cap-height="708"
    bbox="-166 -282 1036 924"
    underline-thickness="50"
    underline-position="-100"
    stemh="78"
    stemv="90"
    unicode-range="U+0020-FB02"
  />
<missing-glyph horiz-adv-x="500" 
d="M0 0v700h500v-700h-500zM250 395l170 255h-340zM280 350l170 -255v510zM80 50h340l-170 255zM50 605v-510l170 255z" />
    <glyph glyph-name="fi" unicode="fi" 
d="M390 0v474h90v-474h-90zM370 643c0 36 30 66 66 66s66 -30 66 -66s-30 -66 -66 -66s-66 30 -66 66zM103 0v396h-102v78h102v106c0 126 44 188 162 188c20 0 42 -1 67 -7l-10 -80c-17 7 -33 9 -51 9c-66 0 -77 -41 -77 -107v-109h107v-78h-108v-396h-90z" />
    <glyph glyph-name="fl" unicode="fl" 
d="M391 0v756h90v-756h-90zM103 0v396h-102v78h102v106c0 126 44 188 162 188c20 0 42 -1 67 -7l-10 -80c-17 7 -33 9 -51 9c-66 0 -77 -41 -77 -107v-109h107v-78h-108v-396h-90z" />
    <glyph glyph-name=".notdef" horiz-adv-x="500" 
d="M0 0v700h500v-700h-500zM250 395l170 255h-340zM280 350l170 -255v510zM80 50h340l-170 255zM50 605v-510l170 255z" />
    <glyph glyph-name="space" unicode=" " horiz-adv-x="278" 
 />
    <glyph glyph-name="exclam" unicode="!" horiz-adv-x="278" 
d="M185 708v-504h-96v504h96zM73 60c0 36 30 66 66 66s66 -30 66 -66s-30 -66 -66 -66s-66 30 -66 66z" />
    <glyph glyph-name="quotedbl" unicode="&#x22;" horiz-adv-x="519" 
d="M146 462v246h78v-246h-78zM295 462v246h78v-246h-78z" />
    <glyph glyph-name="numbersign" unicode="#" 
d="M92 0l28 204h-95v78h106l20 144h-95v78h106l28 204h79l-28 -204h116l28 204h79l-28 -204h95v-78h-106l-20 -144h95v-78h-106l-28 -204h-79l28 204h-116l-28 -204h-79zM346 426h-116l-20 -144h116z" />
    <glyph glyph-name="dollar" unicode="$" 
d="M300 792v-72c73 0 147 -24 198 -77l-72 -70c-30 39 -76 62 -126 63v-236l-2 -1c116 -32 218 -69 218 -205c0 -122 -100 -199 -216 -206v-72h-54v72c-87 0 -166 26 -220 96l77 69c30 -50 87 -79 143 -81v246c-108 28 -204 78 -204 205c0 114 97 188 204 197v72h54z
M246 414v222c-63 -10 -108 -50 -108 -113s52 -93 108 -109zM300 304v-232c66 8 120 50 120 118c0 69 -60 95 -120 114z" />
    <glyph glyph-name="percent" unicode="%" horiz-adv-x="852" 
d="M37 549c0 98 79 177 177 177s177 -79 177 -177s-79 -177 -177 -177s-177 79 -177 177zM115 549c0 -55 44 -99 99 -99s99 44 99 99s-44 99 -99 99s-99 -44 -99 -99zM461 159c0 98 79 177 177 177s177 -79 177 -177s-79 -177 -177 -177s-177 79 -177 177zM539 159
c0 -55 44 -99 99 -99s99 44 99 99s-44 99 -99 99s-99 -44 -99 -99zM680 709l-445 -740l-60 31l445 740z" />
    <glyph glyph-name="ampersand" unicode="&#x26;" horiz-adv-x="722" 
d="M551 165l161 -165h-129l-87 94c-60 -72 -122 -112 -217 -112c-160 0 -232 102 -232 205c0 99 75 162 161 203c-45 48 -83 95 -83 164c0 108 88 166 189 166c99 0 183 -53 183 -160c0 -89 -76 -145 -147 -182l140 -146l89 145h109zM401 560c0 47 -36 76 -86 76
c-51 0 -94 -30 -94 -83c0 -47 39 -87 70 -118c49 27 110 61 110 125zM439 156l-171 178c-57 -33 -119 -71 -119 -144c0 -69 65 -124 133 -124c69 0 120 46 157 90z" />
    <glyph glyph-name="quoteright" unicode="&#x2019;" horiz-adv-x="278" 
d="M222 708l-84 -246h-82l69 246h97z" />
    <glyph glyph-name="parenleft" unicode="(" horiz-adv-x="278" 
d="M194 732l60 -38c-86 -135 -128 -245 -128 -406c0 -146 43 -287 128 -404l-60 -40c-92 125 -146 280 -146 444c0 153 51 313 146 444z" />
    <glyph glyph-name="parenright" unicode=")" horiz-adv-x="278" 
d="M84 -156l-60 38c86 135 128 245 128 406c0 146 -43 287 -128 404l60 40c92 -125 146 -280 146 -444c0 -153 -51 -313 -146 -444z" />
    <glyph glyph-name="asterisk" unicode="*" horiz-adv-x="464" 
d="M269 708v-147l139 47l21 -67l-139 -45l88 -119l-55 -41l-91 122l-89 -120l-55 41l89 117l-142 48l21 65l141 -48v147h72z" />
    <glyph glyph-name="plus" unicode="+" horiz-adv-x="666" 
d="M66 264v78h228v228h78v-228h228v-78h-228v-228h-78v228h-228z" />
    <glyph glyph-name="comma" unicode="," horiz-adv-x="278" 
d="M214 114l-84 -246h-82l69 246h97z" />
    <glyph glyph-name="hyphen" unicode="-" horiz-adv-x="316" 
d="M281 284v-84h-246v84h246z" />
    <glyph glyph-name="period" unicode="." horiz-adv-x="278" 
d="M139 -6c-36 0 -66 30 -66 66s30 66 66 66s66 -30 66 -66s-30 -66 -66 -66z" />
    <glyph glyph-name="slash" unicode="/" horiz-adv-x="389" 
d="M389 726l-319 -770l-70 26l320 770z" />
    <glyph glyph-name="zero" unicode="0" 
d="M34 354c0 155 43 366 244 366s244 -211 244 -366c0 -149 -43 -366 -244 -366s-244 217 -244 366zM130 354c0 -92 14 -282 148 -282s148 190 148 282c0 98 -14 282 -148 282s-148 -184 -148 -282z" />
    <glyph glyph-name="one" unicode="1" 
d="M270 0v598l-130 -120l-56 67l197 163h85v-708h-96z" />
    <glyph glyph-name="two" unicode="2" 
d="M46 0v102l284 282c39 38 78 87 78 145c0 70 -55 113 -122 113c-69 0 -117 -42 -129 -109l-104 9c19 125 112 184 234 184s223 -66 223 -196c0 -93 -60 -160 -123 -221l-233 -225h356v-84h-464z" />
    <glyph glyph-name="three" unicode="3" 
d="M46 142l101 31c23 -68 55 -101 130 -101c74 0 137 52 137 128c0 118 -109 132 -199 132v84c146 0 181 41 181 111c0 75 -51 115 -119 115c-52 0 -97 -33 -118 -82l-98 33c37 90 120 133 214 133c116 0 217 -62 217 -193c0 -74 -49 -139 -121 -160v-2
c89 -15 139 -91 139 -178c0 -136 -111 -205 -236 -205c-108 0 -196 47 -228 154z" />
    <glyph glyph-name="four" unicode="4" 
d="M336 0v156h-302v98l282 454h116v-468h100v-84h-100v-156h-96zM336 240v354h-2l-216 -354h218z" />
    <glyph glyph-name="five" unicode="5" 
d="M471 708v-90h-287l-3 -177c20 9 72 15 95 15c133 0 220 -96 220 -234c0 -141 -111 -234 -249 -234c-96 0 -180 51 -213 143l97 33c25 -65 68 -92 131 -92c76 0 138 55 138 145c0 103 -70 155 -171 155c-36 0 -98 -13 -146 -37l8 373h380z" />
    <glyph glyph-name="six" unicode="6" 
d="M398 708l-178 -274h4c23 11 49 16 78 16c102 0 219 -69 219 -224c0 -156 -110 -238 -243 -238s-243 90 -243 228c0 87 28 141 71 209l179 283h113zM131 219c0 -86 59 -147 147 -147s147 61 147 147s-59 147 -147 147s-147 -61 -147 -147z" />
    <glyph glyph-name="seven" unicode="7" 
d="M97 0l287 624h-342v84h445v-82l-282 -626h-108z" />
    <glyph glyph-name="eight" unicode="8" 
d="M278 -12c-129 0 -231 81 -231 215c0 88 58 152 135 173v3c-53 14 -111 67 -111 165c0 107 96 176 207 176s207 -69 207 -176c0 -98 -58 -151 -111 -165v-3c77 -21 135 -85 135 -173c0 -134 -102 -215 -231 -215zM167 530c0 -55 40 -112 111 -112c74 0 111 54 111 112
c0 65 -45 112 -111 112c-61 0 -111 -46 -111 -112zM278 72c80 0 135 54 135 131c0 86 -60 130 -135 131c-78 -1 -135 -56 -135 -131c0 -83 62 -131 135 -131z" />
    <glyph glyph-name="nine" unicode="9" 
d="M158 0l178 274h-4c-23 -11 -49 -16 -78 -16c-102 0 -219 69 -219 224c0 156 110 238 243 238s243 -90 243 -228c0 -87 -28 -141 -71 -209l-179 -283h-113zM425 489c0 86 -59 147 -147 147s-147 -61 -147 -147s59 -147 147 -147s147 61 147 147z" />
    <glyph glyph-name="colon" unicode=":" horiz-adv-x="278" 
d="M139 348c-36 0 -66 30 -66 66s30 66 66 66s66 -30 66 -66s-30 -66 -66 -66zM73 60c0 36 30 66 66 66s66 -30 66 -66s-30 -66 -66 -66s-66 30 -66 66z" />
    <glyph glyph-name="semicolon" unicode=";" horiz-adv-x="278" 
d="M214 114l-84 -246h-82l69 246h97zM73 413c0 36 30 66 66 66s66 -30 66 -66s-30 -66 -66 -66s-66 30 -66 66z" />
    <glyph glyph-name="less" unicode="&#x3c;" horiz-adv-x="666" 
d="M600 121v-78l-534 219v82l534 220v-79l-452 -182z" />
    <glyph glyph-name="equal" unicode="=" horiz-adv-x="666" 
d="M66 420h534v-78h-534v78zM66 263h534v-78h-534v78z" />
    <glyph glyph-name="greater" unicode="&#x3e;" horiz-adv-x="666" 
d="M66 485v78l534 -219v-82l-534 -220v79l452 182z" />
    <glyph glyph-name="question" unicode="?" horiz-adv-x="500" 
d="M306 198h-96v61c0 73 19 88 71 138c42 41 91 79 91 139c0 61 -47 106 -106 106c-65 0 -108 -46 -116 -112l-102 10c17 116 103 186 220 186c112 0 200 -67 200 -185c0 -51 -16 -94 -42 -120l-70 -71c-40 -41 -50 -52 -50 -108v-44zM191 60c0 36 30 66 66 66
s66 -30 66 -66s-30 -66 -66 -66s-66 30 -66 66z" />
    <glyph glyph-name="at" unicode="@" horiz-adv-x="800" 
d="M422 485c-94 0 -145 -91 -145 -187c0 -49 21 -80 71 -80c81 0 137 103 137 179c0 47 -21 88 -63 88zM615 544l-84 -277c-3 -10 -5 -19 -5 -25c0 -17 9 -24 29 -24c56 0 123 90 123 196c0 157 -121 246 -262 246c-171 0 -294 -135 -294 -308c0 -177 131 -304 299 -304
c95 0 185 36 233 101h79c-56 -101 -186 -167 -314 -167c-211 0 -375 165 -375 374c0 205 168 370 371 370c186 0 341 -128 341 -304c0 -170 -141 -282 -235 -282c-34 0 -62 23 -63 64h-4c-30 -32 -75 -64 -124 -64c-85 0 -137 70 -137 157c0 131 88 266 224 266
c46 0 89 -22 107 -76h2l16 57h73z" />
    <glyph glyph-name="A" unicode="A" horiz-adv-x="704" 
d="M1 0l312 708h87l303 -708h-112l-71 175h-337l-70 -175h-112zM217 259h268l-132 325h-2z" />
    <glyph glyph-name="B" unicode="B" horiz-adv-x="630" 
d="M91 0v708h246c123 0 215 -57 215 -177c0 -81 -50 -132 -122 -156v-2c85 -6 153 -81 153 -176c0 -127 -111 -197 -249 -197h-243zM187 624v-210h131c73 0 132 29 132 106c0 56 -35 104 -112 104h-151zM187 330v-246h141c58 0 153 20 153 120c0 84 -59 126 -152 126h-142z
" />
    <glyph glyph-name="C" unicode="C" horiz-adv-x="704" 
d="M664 616l-80 -61c-40 52 -106 81 -171 81c-159 0 -264 -127 -264 -288c0 -149 99 -276 264 -276c81 0 143 36 185 95l81 -61c-21 -29 -106 -124 -268 -124c-225 0 -364 188 -364 366c0 220 151 378 369 378c93 0 191 -35 248 -110z" />
    <glyph glyph-name="D" unicode="D" horiz-adv-x="741" 
d="M75 0v708h247c299 0 372 -223 372 -354c0 -181 -135 -354 -388 -354h-231zM171 618v-528h121c162 0 300 89 300 264c0 90 -47 264 -277 264h-144z" />
    <glyph glyph-name="E" unicode="E" horiz-adv-x="611" 
d="M91 0v708h457v-90h-361v-211h336v-90h-336v-227h379v-90h-475z" />
    <glyph glyph-name="F" unicode="F" horiz-adv-x="574" 
d="M91 0v708h445v-90h-349v-222h325v-90h-325v-306h-96z" />
    <glyph glyph-name="G" unicode="G" horiz-adv-x="778" 
d="M441 396h253v-349c-69 -42 -182 -65 -268 -65c-240 0 -379 171 -379 372c0 210 153 372 369 372c130 0 209 -35 264 -92l-68 -73c-58 56 -125 75 -196 75c-162 0 -267 -127 -267 -282c0 -160 119 -282 275 -282c67 0 131 13 174 37v197h-157v90z" />
    <glyph glyph-name="H" unicode="H" horiz-adv-x="741" 
d="M91 0v708h96v-294h367v294h96v-708h-96v324h-367v-324h-96z" />
    <glyph glyph-name="I" unicode="I" horiz-adv-x="278" 
d="M91 0v708h96v-708h-96z" />
    <glyph glyph-name="J" unicode="J" horiz-adv-x="482" 
d="M312 233v475h96v-506c0 -178 -128 -220 -207 -220c-100 0 -173 51 -192 155l94 21c11 -53 45 -86 98 -86c95 0 111 81 111 161z" />
    <glyph glyph-name="K" unicode="K" horiz-adv-x="648" 
d="M91 0v708h96v-306h8l313 306h134l-342 -327l365 -381h-140l-330 354h-8v-354h-96z" />
    <glyph glyph-name="L" unicode="L" horiz-adv-x="519" 
d="M91 0v708h96v-618h325v-90h-421z" />
    <glyph glyph-name="M" unicode="M" horiz-adv-x="906" 
d="M84 0v708h143l225 -536h4l223 536h143v-708h-96v582h-2l-239 -582h-64l-239 582h-2v-582h-96z" />
    <glyph glyph-name="N" unicode="N" horiz-adv-x="796" 
d="M91 0v708h126l390 -582h2v582h96v-708h-122l-394 582h-2v-582h-96z" />
    <glyph glyph-name="O" unicode="O" horiz-adv-x="832" 
d="M416 -18c-216 0 -369 162 -369 372s153 372 369 372s369 -162 369 -372s-153 -372 -369 -372zM416 72c162 0 267 127 267 282s-105 282 -267 282s-267 -127 -267 -282s105 -282 267 -282z" />
    <glyph glyph-name="P" unicode="P" horiz-adv-x="593" 
d="M91 0v708h249c181 0 227 -109 227 -198s-46 -198 -227 -198h-153v-312h-96zM187 624v-228h126c76 0 152 18 152 114s-76 114 -152 114h-126z" />
    <glyph glyph-name="Q" unicode="Q" horiz-adv-x="832" 
d="M822 84v-84h-408c-201 0 -367 151 -367 362c0 208 159 364 366 364c199 0 361 -152 361 -354c0 -120 -57 -238 -162 -286v-2h210zM410 90c155 0 262 123 262 278c0 150 -111 268 -262 268c-148 0 -261 -119 -261 -266c0 -155 107 -280 261 -280z" />
    <glyph glyph-name="R" unicode="R" horiz-adv-x="611" 
d="M91 0v708h249c181 0 227 -109 227 -198c0 -90 -67 -175 -174 -187l201 -323h-120l-180 312h-107v-312h-96zM187 624v-228h126c76 0 152 18 152 114s-76 114 -152 114h-126z" />
    <glyph glyph-name="S" unicode="S" 
d="M33 80l79 68c34 -52 93 -76 150 -76c63 0 141 40 141 118c0 163 -349 62 -349 338c0 83 70 198 240 198c77 0 151 -16 204 -81l-78 -71c-24 37 -71 62 -126 62c-106 0 -138 -64 -138 -108c0 -179 349 -72 349 -327c0 -137 -110 -219 -246 -219c-91 0 -178 31 -226 98z
" />
    <glyph glyph-name="T" unicode="T" horiz-adv-x="574" 
d="M239 0v618h-228v90h552v-90h-228v-618h-96z" />
    <glyph glyph-name="U" unicode="U" horiz-adv-x="704" 
d="M78 708h96v-434c0 -88 44 -202 178 -202s178 114 178 202v434h96v-449c0 -164 -119 -277 -274 -277s-274 113 -274 277v449z" />
    <glyph glyph-name="V" unicode="V" horiz-adv-x="630" 
d="M267 0l-273 708h111l208 -576h2l216 576h105l-279 -708h-90z" />
    <glyph glyph-name="W" unicode="W" horiz-adv-x="962" 
d="M208 0l-207 708h100l156 -566h2l167 566h110l167 -566h2l156 566h100l-206 -708h-101l-172 578h-2l-171 -578h-101z" />
    <glyph glyph-name="X" unicode="X" horiz-adv-x="648" 
d="M-2 0l257 372l-238 336h123l184 -272l182 272h120l-236 -335l260 -373h-126l-203 307l-204 -307h-119z" />
    <glyph glyph-name="Y" unicode="Y" horiz-adv-x="612" 
d="M258 0v302l-268 406h123l193 -311l199 311h117l-268 -406v-302h-96z" />
    <glyph glyph-name="Z" unicode="Z" horiz-adv-x="593" 
d="M32 0v90l403 528h-391v90h511v-90l-401 -528h407v-90h-529z" />
    <glyph glyph-name="bracketleft" unicode="[" horiz-adv-x="278" 
d="M72 -156v888h174v-66h-90v-756h90v-66h-174z" />
    <glyph glyph-name="backslash" unicode="\" horiz-adv-x="389" 
d="M319 -44l-319 770l69 26l320 -770z" />
    <glyph glyph-name="bracketright" unicode="]" horiz-adv-x="278" 
d="M32 -156v66h90v756h-90v66h174v-888h-174z" />
    <glyph glyph-name="asciicircum" unicode="^" horiz-adv-x="666" 
d="M80 276l213 432h80l213 -432h-83l-170 353l-170 -353h-83z" />
    <glyph glyph-name="underscore" unicode="_" horiz-adv-x="500" 
d="M0 -125v50h500v-50h-500z" />
    <glyph glyph-name="quoteleft" unicode="&#x2018;" horiz-adv-x="278" 
d="M56 462l84 246h82l-69 -246h-97z" />
    <glyph glyph-name="a" unicode="a" horiz-adv-x="519" 
d="M124 360l-54 56c50 47 122 70 188 70c140 0 198 -76 198 -158v-242c0 -33 1 -61 4 -86h-80c-2 24 -3 48 -3 72h-2c-40 -61 -94 -84 -166 -84c-88 0 -164 50 -164 142c0 122 117 164 261 164h66v20c0 49 -36 100 -113 100c-69 0 -102 -29 -135 -54zM372 228h-48
c-85 0 -189 -15 -189 -91c0 -54 40 -77 102 -77c100 0 135 74 135 138v30z" />
    <glyph glyph-name="b" unicode="b" horiz-adv-x="611" 
d="M68 0v756h90v-350h2c32 49 97 80 165 80c146 0 241 -107 241 -249c0 -140 -94 -249 -241 -249c-64 0 -130 29 -165 80h-2v-68h-90zM314 72c96 0 156 69 156 165s-60 165 -156 165s-156 -69 -156 -165s60 -165 156 -165z" />
    <glyph glyph-name="c" unicode="c" horiz-adv-x="482" 
d="M475 410l-68 -62c-33 35 -68 53 -118 53c-98 0 -148 -79 -148 -168s60 -161 153 -161c50 0 85 18 115 53l64 -64c-47 -52 -111 -73 -180 -73c-146 0 -248 101 -248 247s100 250 248 250c69 0 135 -24 182 -75z" />
    <glyph glyph-name="d" unicode="d" horiz-adv-x="611" 
d="M543 756v-756h-90v68h-2c-35 -51 -101 -80 -165 -80c-147 0 -241 109 -241 249c0 142 95 249 241 249c68 0 133 -31 165 -80h2v350h90zM297 72c96 0 156 69 156 165s-60 165 -156 165s-156 -69 -156 -165s60 -165 156 -165z" />
    <glyph glyph-name="e" unicode="e" 
d="M516 204h-380c0 -83 77 -138 160 -138c55 0 95 28 130 71l68 -52c-50 -65 -119 -97 -210 -97c-150 0 -244 108 -244 249c0 142 103 249 245 249c167 0 231 -128 231 -250v-32zM136 276h284c-2 79 -46 138 -137 138c-89 0 -147 -75 -147 -138z" />
    <glyph glyph-name="f" unicode="f" horiz-adv-x="333" 
d="M103 0v396h-102v78h102v106c0 126 44 188 162 188c20 0 42 -1 67 -7l-10 -80c-17 7 -33 9 -51 9c-66 0 -77 -41 -77 -107v-109h107v-78h-108v-396h-90z" />
    <glyph glyph-name="g" unicode="g" horiz-adv-x="611" 
d="M543 474v-470c0 -143 -104 -244 -259 -244c-90 0 -165 23 -232 85l61 76c47 -50 100 -77 169 -77c134 0 171 84 171 164v70h-3c-34 -57 -99 -84 -164 -84c-139 0 -242 105 -241 243c0 140 94 249 241 249c64 0 130 -29 165 -80h2v68h90zM297 402
c-96 0 -156 -69 -156 -165s60 -159 156 -159s156 63 156 159s-60 165 -156 165z" />
    <glyph glyph-name="h" unicode="h" 
d="M68 0v756h90v-355h2c23 50 83 85 156 85c92 0 172 -55 172 -181v-305h-90v280c0 89 -51 122 -108 122c-75 0 -132 -48 -132 -158v-244h-90z" />
    <glyph glyph-name="i" unicode="i" horiz-adv-x="240" 
d="M75 0v474h90v-474h-90zM54 644c0 36 30 66 66 66s66 -30 66 -66s-30 -66 -66 -66s-66 30 -66 66z" />
    <glyph glyph-name="j" unicode="j" horiz-adv-x="240" 
d="M75 474h90v-542c0 -49 -1 -172 -145 -172c-20 0 -39 2 -58 9l10 83c11 -4 25 -8 37 -8c49 0 66 32 66 92v538zM54 644c0 36 30 66 66 66s66 -30 66 -66s-30 -66 -66 -66s-66 30 -66 66z" />
    <glyph glyph-name="k" unicode="k" horiz-adv-x="519" 
d="M68 0v756h90v-488l204 205h125l-221 -215l240 -258h-128l-220 246v-246h-90z" />
    <glyph glyph-name="l" unicode="l" horiz-adv-x="240" 
d="M75 0v756h90v-756h-90z" />
    <glyph glyph-name="m" unicode="m" horiz-adv-x="852" 
d="M68 0v474h84v-74h2c9 28 67 86 152 86c70 0 118 -30 148 -88c31 58 93 88 150 88c146 0 180 -104 180 -210v-276h-90v264c0 72 -15 138 -102 138s-121 -59 -121 -143v-259h-90v248c0 90 -13 154 -100 154c-65 0 -123 -49 -123 -156v-246h-90z" />
    <glyph glyph-name="n" unicode="n" 
d="M68 0v474h90v-73h2c23 50 83 85 156 85c92 0 172 -55 172 -181v-305h-90v280c0 89 -51 122 -108 122c-75 0 -132 -48 -132 -158v-244h-90z" />
    <glyph glyph-name="o" unicode="o" horiz-adv-x="594" 
d="M141 237c0 -96 60 -165 156 -165s156 69 156 165s-60 165 -156 165s-156 -69 -156 -165zM45 237c0 138 111 249 252 249s252 -111 252 -249s-111 -249 -252 -249s-252 111 -252 249z" />
    <glyph glyph-name="p" unicode="p" horiz-adv-x="611" 
d="M68 -282v756h90v-68h2c35 51 101 80 165 80c147 0 241 -109 241 -249c0 -142 -95 -249 -241 -249c-68 0 -133 31 -165 80h-2v-350h-90zM314 402c-96 0 -156 -69 -156 -165s60 -165 156 -165s156 69 156 165s-60 165 -156 165z" />
    <glyph glyph-name="q" unicode="q" horiz-adv-x="611" 
d="M543 474v-702h-90v296h-2c-32 -49 -97 -80 -165 -80c-146 0 -241 107 -241 249c0 140 94 249 241 249c64 0 130 -29 165 -80h2v68h90zM297 402c-96 0 -156 -69 -156 -165s60 -165 156 -165s156 69 156 165s-60 165 -156 165z" />
    <glyph glyph-name="r" unicode="r" horiz-adv-x="370" 
d="M68 0v474h90v-73h2c23 50 83 85 142 85c14 0 28 -2 40 -6l-4 -97c-15 4 -30 7 -44 7c-88 0 -136 -48 -136 -152v-238h-90z" />
    <glyph glyph-name="s" unicode="s" horiz-adv-x="444" 
d="M390 408l-70 -53c-21 26 -52 47 -97 47c-42 0 -79 -19 -79 -53c0 -57 81 -65 121 -74c78 -19 138 -49 138 -138c0 -107 -98 -149 -192 -149c-78 0 -136 20 -183 84l68 56c29 -29 63 -56 115 -56c46 0 96 19 96 60c0 54 -75 64 -114 73c-77 19 -145 44 -145 135
c0 99 91 146 180 146c63 0 128 -22 162 -78z" />
    <glyph glyph-name="t" unicode="t" horiz-adv-x="370" 
d="M322 474v-78h-129v-215c0 -53 0 -109 68 -109c21 0 46 3 64 14v-82c-21 -12 -63 -16 -81 -16c-139 0 -141 85 -141 161v247h-104v78h104v133h90v-133h129z" />
    <glyph glyph-name="u" unicode="u" 
d="M488 474v-474h-90v73h-2c-23 -50 -83 -85 -156 -85c-92 0 -172 55 -172 181v305h90v-280c0 -89 51 -122 108 -122c75 0 132 48 132 158v244h90z" />
    <glyph glyph-name="v" unicode="v" horiz-adv-x="500" 
d="M204 0l-193 474h104l142 -363l136 363h96l-186 -474h-99z" />
    <glyph glyph-name="w" unicode="w" horiz-adv-x="759" 
d="M167 0l-156 474h101l107 -354h2l113 354h95l120 -354h2l102 354h95l-153 -474h-91l-125 354h-2l-113 -354h-97z" />
    <glyph glyph-name="x" unicode="x" horiz-adv-x="519" 
d="M6 0l192 253l-168 221h116l115 -168l113 168h109l-162 -221l192 -253h-116l-140 199l-140 -199h-111z" />
    <glyph glyph-name="y" unicode="y" horiz-adv-x="500" 
d="M208 -3l-197 477h104l141 -370h2l134 370h97l-225 -576c-32 -82 -63 -138 -162 -138c-27 0 -55 3 -80 13l11 82c17 -7 36 -11 54 -11c57 0 74 31 92 78z" />
    <glyph glyph-name="z" unicode="z" horiz-adv-x="463" 
d="M35 0v81l269 315h-260v78h370v-80l-271 -316h285v-78h-393z" />
    <glyph glyph-name="braceleft" unicode="{" horiz-adv-x="333" 
d="M304 732v-72h-45c-39 0 -51 -44 -51 -87v-151c3 -93 -61 -127 -84 -133v-3c23 -3 87 -32 84 -134v-150c0 -41 12 -86 51 -86h45v-72h-75c-50 0 -105 46 -105 153v134c-3 73 -39 117 -84 117v78c45 0 81 44 84 117v158c0 85 55 131 105 131h75z" />
    <glyph glyph-name="bar" unicode="|" horiz-adv-x="222" 
d="M72 750h78v-1000h-78v1000z" />
    <glyph glyph-name="braceright" unicode="}" horiz-adv-x="333" 
d="M29 -156v72h45c39 0 51 44 51 87v151c-3 93 61 127 84 133v3c-23 3 -87 32 -84 134v150c0 41 -12 86 -51 86h-45v72h75c50 0 105 -46 105 -153v-134c0 -73 39 -117 84 -117v-78c-45 0 -84 -44 -84 -117v-158c0 -85 -55 -131 -105 -131h-75z" />
    <glyph glyph-name="asciitilde" unicode="~" horiz-adv-x="666" 
d="M530 378l40 -62c-40 -68 -84 -88 -128 -88c-39 0 -78 18 -116 36s-74 36 -106 36c-43 0 -67 -38 -84 -72l-40 62c31 52 69 88 133 88c40 0 78 -18 113 -36s68 -37 99 -37c32 0 61 18 89 73z" />
    <glyph glyph-name="exclamdown" unicode="&#xa1;" horiz-adv-x="278" 
d="M93 -222v504h96v-504h-96zM205 426c0 -36 -30 -66 -66 -66s-66 30 -66 66s30 66 66 66s66 -30 66 -66z" />
    <glyph glyph-name="cent" unicode="&#xa2;" 
d="M342 408v-342c42 1 78 19 106 52l59 -58c-39 -44 -98 -67 -165 -72v-66h-54v66c-133 13 -216 118 -216 249c0 135 83 230 216 249v66h54v-66c63 -3 127 -29 167 -76l-65 -59c-25 30 -64 56 -102 57zM288 66v342c-83 -13 -126 -88 -126 -169c0 -82 46 -158 126 -173z" />
    <glyph glyph-name="sterling" unicode="&#xa3;" 
d="M432 400v-72h-162v-244h246v-84h-444v84h102v244h-96v72h96v100c0 116 74 220 220 220c63 0 123 -18 169 -62l-61 -70c-30 29 -65 48 -98 48c-70 0 -134 -43 -134 -160v-76h162z" />
    <glyph glyph-name="fraction" unicode="&#x2044;" horiz-adv-x="167" 
d="M333 708l-439 -740l-60 32l439 740z" />
    <glyph glyph-name="yen" unicode="&#xa5;" 
d="M236 0v186h-171v66h171v53l-17 28h-154v66h114l-184 309h100l179 -316l185 316h102l-186 -309h116v-66h-154l-17 -28v-53h171v-66h-171v-186h-84z" />
    <glyph glyph-name="florin" unicode="&#x192;" 
d="M449 425v-72h-134l-73 -368c-15 -78 -76 -129 -157 -129c-38 0 -69 11 -97 25l38 71c21 -8 39 -12 54 -12c58 0 70 51 77 89l63 324h-108v72h122l27 141c18 92 78 154 153 154c43 0 86 -7 117 -24l-40 -75c-15 10 -29 15 -58 15c-34 0 -72 -25 -85 -100l-19 -111h120z
" />
    <glyph glyph-name="section" unicode="&#xa7;" 
d="M483 626l-84 -46c-17 42 -55 61 -101 62c-52 0 -99 -24 -99 -78c0 -118 295 -105 295 -285c0 -58 -32 -104 -83 -131c41 -28 65 -69 65 -121c0 -115 -105 -171 -210 -171c-88 0 -168 36 -204 121l87 41c18 -55 67 -78 124 -78c51 0 101 25 101 87
c0 103 -295 112 -295 266c0 80 41 123 98 151c-48 27 -80 65 -80 118c0 108 104 164 203 164c72 0 150 -29 183 -100zM322 362l-79 38c-36 -14 -74 -35 -74 -79c0 -61 55 -81 98 -102l77 -37c31 19 60 53 60 88c0 49 -45 73 -82 92z" />
    <glyph glyph-name="currency" unicode="&#xa4;" 
d="M21 555l57 56l49 -48c47 33 99 49 151 49s105 -16 151 -49l49 48l57 -56l-49 -49c33 -45 49 -98 49 -151s-16 -106 -49 -151l49 -49l-57 -57l-49 49c-44 -33 -97 -49 -151 -49c-53 0 -106 17 -151 49l-49 -49l-57 57l49 49c-32 44 -49 98 -49 151c0 54 17 107 49 151z
M99 355c0 -99 80 -179 179 -179s179 80 179 179s-80 179 -179 179s-179 -80 -179 -179z" />
    <glyph glyph-name="quotesingle" unicode="'" horiz-adv-x="278" 
d="M178 708v-246h-78v246h78z" />
    <glyph glyph-name="quotedblleft" unicode="&#x201c;" horiz-adv-x="519" 
d="M254 708l-69 -246h-97l84 246h82zM431 708l-69 -246h-97l84 246h82z" />
    <glyph glyph-name="guillemotleft" unicode="&#xab;" horiz-adv-x="500" 
d="M193 27l-146 216l145 216l62 -41l-117 -175l118 -175zM391 27l-146 216l145 216l62 -41l-117 -175l118 -175z" />
    <glyph glyph-name="guilsinglleft" unicode="&#x2039;" horiz-adv-x="315" 
d="M200 27l-146 216l145 216l62 -41l-117 -175l118 -175z" />
    <glyph glyph-name="guilsinglright" unicode="&#x203a;" horiz-adv-x="315" 
d="M116 27l-62 41l117 175l-118 175l62 41l146 -216z" />
    <glyph glyph-name="endash" unicode="&#x2013;" horiz-adv-x="500" 
d="M500 282v-78h-500v78h500z" />
    <glyph glyph-name="dagger" unicode="&#x2020;" 
d="M233 -126v553h-198v78h198v203h90v-203h198v-78h-198v-553h-90z" />
    <glyph glyph-name="daggerdbl" unicode="&#x2021;" 
d="M233 -126v192h-192v78h192v306h-192v78h192v180h90v-180h192v-78h-192v-306h192v-78h-192v-192h-90z" />
    <glyph glyph-name="periodcentered" unicode="&#xb7;" horiz-adv-x="278" 
d="M73 303c0 36 30 66 66 66s66 -30 66 -66s-30 -66 -66 -66s-66 30 -66 66z" />
    <glyph glyph-name="paragraph" unicode="&#xb6;" horiz-adv-x="600" 
d="M260 -126v444c-122 0 -209 81 -209 185c0 130 87 205 228 205h249v-834h-78v768h-112v-768h-78z" />
    <glyph glyph-name="bullet" unicode="&#x2022;" horiz-adv-x="500" 
d="M73 354c0 98 79 177 177 177s177 -79 177 -177s-79 -177 -177 -177s-177 79 -177 177z" />
    <glyph glyph-name="quotesinglbase" unicode="&#x201a;" horiz-adv-x="278" 
d="M222 114l-84 -246h-82l69 246h97z" />
    <glyph glyph-name="quotedblbase" unicode="&#x201e;" horiz-adv-x="519" 
d="M254 114l-84 -246h-82l69 246h97zM431 114l-84 -246h-82l69 246h97z" />
    <glyph glyph-name="quotedblright" unicode="&#x201d;" horiz-adv-x="519" 
d="M254 708l-84 -246h-82l69 246h97zM431 708l-84 -246h-82l69 246h97z" />
    <glyph glyph-name="guillemotright" unicode="&#xbb;" horiz-adv-x="500" 
d="M307 459l146 -216l-145 -216l-62 41l117 175l-118 175zM109 459l146 -216l-145 -216l-62 41l117 175l-118 175z" />
    <glyph glyph-name="ellipsis" unicode="&#x2026;" horiz-adv-x="1000" 
d="M167 -6c-36 0 -66 30 -66 66s30 66 66 66s66 -30 66 -66s-30 -66 -66 -66zM500 -6c-36 0 -66 30 -66 66s30 66 66 66s66 -30 66 -66s-30 -66 -66 -66zM833 -6c-36 0 -66 30 -66 66s30 66 66 66s66 -30 66 -66s-30 -66 -66 -66z" />
    <glyph glyph-name="perthousand" unicode="&#x2030;" horiz-adv-x="1056" 
d="M507 -18c-90 0 -162 73 -162 163s72 162 162 162s163 -72 163 -162s-73 -163 -163 -163zM507 54c50 0 91 41 91 91s-41 90 -91 90s-90 -40 -90 -90s40 -91 90 -91zM711 145c0 90 72 162 162 162s163 -72 163 -162s-73 -163 -163 -163s-162 73 -162 163zM873 54
c50 0 91 41 91 91s-41 90 -91 90s-90 -40 -90 -90s40 -91 90 -91zM20 558c0 90 72 162 162 162s163 -72 163 -162s-73 -163 -163 -163s-162 73 -162 163zM92 558c0 -50 40 -91 90 -91s91 41 91 91s-41 90 -91 90s-90 -40 -90 -90zM598 710l-443 -741l-62 31l445 740z" />
    <glyph glyph-name="questiondown" unicode="&#xbf;" horiz-adv-x="500" 
d="M194 288h96v-61c0 -73 -19 -88 -71 -138c-42 -41 -91 -79 -91 -139c0 -61 47 -106 106 -106c65 0 108 46 116 112l102 -10c-17 -116 -103 -186 -220 -186c-112 0 -200 67 -200 185c0 51 16 94 42 120l70 71c40 41 50 52 50 108v44zM309 426c0 -36 -30 -66 -66 -66
s-66 30 -66 66s30 66 66 66s66 -30 66 -66z" />
    <glyph glyph-name="grave" unicode="`" horiz-adv-x="240" 
d="M82 708l104 -144h-83l-149 144h128z" />
    <glyph glyph-name="acute" unicode="&#xb4;" horiz-adv-x="240" 
d="M54 564l104 144h128l-149 -144h-83z" />
    <glyph glyph-name="circumflex" unicode="&#x2c6;" horiz-adv-x="240" 
d="M285 564h-91l-74 96l-74 -96h-91l112 144h106z" />
    <glyph glyph-name="tilde" unicode="&#x2dc;" horiz-adv-x="240" 
d="M0 576h-48c9 52 42 104 101 104c30 0 57 -12 84 -23c20 -8 33 -17 54 -17c27 0 42 20 49 44h48c-8 -51 -35 -104 -94 -104c-28 0 -56 11 -81 21c-20 8 -43 19 -66 19c-25 0 -40 -22 -47 -44z" />
    <glyph glyph-name="macron" unicode="&#xaf;" horiz-adv-x="240" 
d="M264 666v-66h-288v66h288z" />
    <glyph glyph-name="breve" unicode="&#x2d8;" horiz-adv-x="240" 
d="M-37 702h55c9 -51 54 -72 103 -72s94 21 103 72h53c-6 -91 -69 -138 -157 -138s-151 47 -157 138z" />
    <glyph glyph-name="dotaccent" unicode="&#x2d9;" horiz-adv-x="240" 
d="M120 594c-36 0 -62 27 -62 63c0 33 31 57 62 57s62 -24 62 -57c0 -36 -26 -63 -62 -63z" />
    <glyph glyph-name="dieresis" unicode="&#xa8;" horiz-adv-x="240" 
d="M18 714c31 0 62 -24 62 -57c0 -36 -26 -63 -62 -63s-62 27 -62 63c0 33 31 57 62 57zM222 714c31 0 62 -24 62 -57c0 -36 -26 -63 -62 -63s-62 27 -62 63c0 33 31 57 62 57z" />
    <glyph glyph-name="ring" unicode="&#x2da;" horiz-adv-x="240" 
d="M18 651c0 56 48 99 102 99c56 0 103 -43 102 -98c1 -56 -46 -99 -102 -99c-54 0 -102 43 -102 98zM180 651c0 33 -28 57 -60 57s-60 -24 -60 -57c0 -32 29 -56 60 -56s60 24 60 56z" />
    <glyph glyph-name="cedilla" unicode="&#xb8;" horiz-adv-x="240" 
d="M5 -205l19 40c25 -10 52 -15 78 -15c24 0 61 8 61 42c0 51 -57 44 -94 33l-21 18l61 87h49l-44 -61h29c45 1 92 -22 92 -72c0 -71 -68 -95 -125 -95c-36 0 -72 7 -105 23z" />
    <glyph glyph-name="hungarumlaut" unicode="&#x2dd;" horiz-adv-x="240" 
d="M-50 564l104 144h127l-149 -144h-82zM119 564l104 144h127l-149 -144h-82z" />
    <glyph glyph-name="ogonek" unicode="&#x2db;" horiz-adv-x="240" 
d="M193 -142l22 -44c-27 -24 -60 -35 -91 -35c-52 0 -97 30 -99 85c0 56 51 110 93 143h54c-29 -28 -75 -82 -75 -125c3 -32 25 -43 49 -43c17 0 34 8 47 19z" />
    <glyph glyph-name="caron" unicode="&#x2c7;" horiz-adv-x="240" 
d="M67 564l-112 144h87l78 -96l74 96h91l-112 -144h-106z" />
    <glyph glyph-name="emdash" unicode="&#x2014;" horiz-adv-x="1000" 
d="M1000 282v-78h-1000v78h1000z" />
    <glyph glyph-name="AE" unicode="&#xc6;" horiz-adv-x="963" 
d="M-8 0l458 708h456v-90h-295v-211h277v-90h-277v-227h307v-90h-403v172h-304l-101 -172h-118zM263 262h252v356h-19z" />
    <glyph glyph-name="ordfeminine" unicode="&#xaa;" horiz-adv-x="337" 
d="M308 425h-66v44l-2 1c-18 -38 -53 -51 -100 -51c-54 0 -106 28 -106 86c0 99 121 103 196 103h12v10c0 26 -24 48 -68 48c-33 0 -65 -11 -89 -33l-35 45c32 28 79 42 123 42c116 0 135 -48 135 -99v-196zM242 560h-2c-57 0 -140 0 -140 -51c0 -28 29 -36 60 -36
c56 0 82 28 82 68v19z" />
    <glyph glyph-name="Lslash" unicode="&#x141;" horiz-adv-x="519" 
d="M91 0v209l-72 -63v89l72 62v411h96v-328l216 188v-89l-216 -187v-202h325v-90h-421z" />
    <glyph glyph-name="Oslash" unicode="&#xd8;" horiz-adv-x="832" 
d="M621 540l-375 -409c45 -37 103 -59 170 -59c162 0 267 127 267 282c0 71 -22 136 -62 186zM207 173l374 407c-44 35 -100 56 -165 56c-162 0 -267 -127 -267 -282c0 -69 21 -132 58 -181zM98 -30l-43 38l85 93c-59 66 -93 154 -93 253c0 210 153 372 369 372
c89 0 168 -28 230 -76l83 90l42 -38l-83 -90c61 -65 97 -156 97 -258c0 -210 -153 -372 -369 -372c-92 0 -172 29 -234 79z" />
    <glyph glyph-name="OE" unicode="&#x152;" horiz-adv-x="981" 
d="M923 90v-90h-456c-261 0 -409 148 -409 354c0 214 154 354 409 354h444v-90h-294v-211h276v-90h-276v-227h306zM521 90v528h-61c-196 0 -300 -122 -300 -264c0 -150 104 -264 300 -264h61z" />
    <glyph glyph-name="ordmasculine" unicode="&#xba;" horiz-adv-x="386" 
d="M193 720c100 0 164 -60 164 -151s-64 -150 -164 -150s-164 59 -164 150s64 151 164 151zM193 660c-59 0 -92 -36 -92 -91s33 -90 92 -90s92 35 92 90s-33 91 -92 91z" />
    <glyph glyph-name="ae" unicode="&#xe6;" horiz-adv-x="852" 
d="M813 246v-42h-353c0 -76 52 -144 143 -144c57 0 99 32 123 75l73 -55c-55 -64 -112 -98 -198 -98c-76 0 -143 26 -185 97c-44 -60 -106 -97 -194 -97c-128 0 -183 78 -183 153c0 112 103 141 197 141h140v15c0 68 -41 123 -119 123c-55 0 -92 -20 -134 -54l-56 57
c50 45 122 69 189 69c65 0 133 -20 170 -76c31 35 79 76 166 76c181 0 221 -159 221 -240zM376 204h-142c-69 0 -99 -22 -99 -69c0 -46 45 -81 99 -81c74 0 142 51 142 136v14zM460 276h257c-2 73 -35 132 -126 132c-84 0 -131 -59 -131 -132z" />
    <glyph glyph-name="dotlessi" unicode="&#x131;" horiz-adv-x="240" 
d="M75 0v474h90v-474h-90z" />
    <glyph glyph-name="lslash" unicode="&#x142;" horiz-adv-x="240" 
d="M75 0v298l-78 -78v90l78 78v368h90v-278l78 77v-90l-78 -77v-388h-90z" />
    <glyph glyph-name="oslash" unicode="&#xf8;" horiz-adv-x="594" 
d="M171 135l228 232c-26 22 -60 35 -102 35c-96 0 -156 -69 -156 -165c0 -40 10 -75 30 -102zM78 -32l-37 36l67 68c-39 42 -63 101 -63 165c0 138 111 249 252 249c63 0 120 -22 162 -58l75 75l36 -36l-75 -76c34 -42 54 -96 54 -154c0 -138 -111 -249 -252 -249
c-56 0 -108 18 -150 49zM431 326l-223 -227c24 -18 54 -27 89 -27c96 0 156 69 156 165c0 33 -7 64 -22 89z" />
    <glyph glyph-name="oe" unicode="&#x153;" horiz-adv-x="926" 
d="M794 135l74 -49c-46 -66 -113 -98 -199 -98c-77 0 -154 27 -194 92c-25 -34 -72 -92 -195 -92c-153 0 -241 108 -241 249c0 143 100 249 246 249c82 0 144 -29 192 -91c32 42 88 91 187 91c135 0 223 -97 223 -238v-44h-359c0 -70 42 -138 143 -138c57 0 97 27 123 69z
M528 276h263c-2 67 -44 138 -129 138s-134 -79 -134 -138zM438 237c0 86 -44 171 -150 171c-102 0 -153 -76 -153 -171c0 -93 51 -171 145 -171c122 0 158 85 158 171z" />
    <glyph glyph-name="germandbls" unicode="&#xdf;" horiz-adv-x="611" 
d="M68 0v509c0 141 38 259 225 259c111 0 203 -63 203 -181c0 -82 -43 -135 -111 -155v-2c79 -12 170 -75 170 -210c0 -143 -102 -232 -242 -232c-24 0 -48 3 -71 9v81c17 -4 35 -6 53 -6c98 0 164 57 164 156c0 106 -76 155 -174 155h-14v84h16c68 0 113 42 113 109
c0 81 -59 108 -112 108c-100 0 -130 -70 -130 -164v-520h-90z" />
    <glyph glyph-name="onesuperior" unicode="&#xb9;" horiz-adv-x="361" 
d="M154 289v359l-85 -72l-42 46l128 98h71v-431h-72z" />
    <glyph glyph-name="logicalnot" unicode="&#xac;" horiz-adv-x="666" 
d="M600 420v-279h-78v201h-456v78h534z" />
    <glyph glyph-name="mu" unicode="&#xb5;" 
d="M68 -228v702h90v-280c0 -89 51 -122 108 -122c75 0 132 48 132 158v244h90v-474h-90v73h-2c-23 -50 -83 -85 -156 -85c-30 0 -58 6 -82 18v-234h-90z" />
    <glyph glyph-name="trademark" unicode="&#x2122;" horiz-adv-x="1000" 
d="M158 296v346h-124v66h326v-66h-124v-346h-78zM439 296v412h119l111 -316h3l111 316h119v-412h-78v344h-2l-120 -344h-63l-120 344h-2v-344h-78z" />
    <glyph glyph-name="Eth" unicode="&#xd0;" horiz-adv-x="741" 
d="M75 0v336h-72v66h72v306h247c299 0 372 -223 372 -354c0 -181 -135 -354 -388 -354h-231zM171 336v-246h121c162 0 300 89 300 264c0 90 -47 264 -277 264h-144v-216h234v-66h-234z" />
    <glyph glyph-name="onehalf" unicode="&#xbd;" horiz-adv-x="834" 
d="M158 289v359l-85 -72l-42 46l128 98h71v-431h-72zM494 0v76l179 160c20 18 45 42 45 73c0 35 -29 56 -65 56c-38 0 -65 -23 -68 -59l-84 6c7 78 69 119 152 119s149 -39 149 -120c0 -53 -30 -89 -71 -124l-141 -121h213v-66h-309zM140 0l439 740l60 -32l-439 -740z" />
    <glyph glyph-name="plusminus" unicode="&#xb1;" horiz-adv-x="666" 
d="M66 315v78h228v163h78v-163h228v-78h-228v-150h-78v150h-228zM66 51v78h534v-78h-534z" />
    <glyph glyph-name="Thorn" unicode="&#xde;" horiz-adv-x="593" 
d="M91 0v708h96v-145h153c181 0 227 -109 227 -198s-46 -198 -227 -198h-153v-167h-96zM187 479v-228h126c76 0 152 18 152 114s-76 114 -152 114h-126z" />
    <glyph glyph-name="onequarter" unicode="&#xbc;" horiz-adv-x="834" 
d="M673 0v94h-196v58l183 279h79v-271h62v-66h-62v-94h-66zM667 160v187h-2l-116 -187h118zM152 0l439 740l60 -32l-439 -740zM160 289v359l-85 -72l-42 46l128 98h71v-431h-72z" />
    <glyph glyph-name="divide" unicode="&#xf7;" horiz-adv-x="666" 
d="M66 341h534v-78h-534v78zM267 470c0 36 30 66 66 66s66 -30 66 -66s-30 -66 -66 -66s-66 30 -66 66zM267 134c0 36 30 66 66 66s66 -30 66 -66s-30 -66 -66 -66s-66 30 -66 66z" />
    <glyph glyph-name="brokenbar" unicode="&#xa6;" horiz-adv-x="222" 
d="M72 675h78v-350h-78v350zM72 175h78v-350h-78v350z" />
    <glyph glyph-name="degree" unicode="&#xb0;" horiz-adv-x="400" 
d="M51 571c0 82 67 149 149 149s149 -67 149 -149s-67 -149 -149 -149s-149 67 -149 149zM117 571c0 -46 37 -83 83 -83s83 37 83 83s-37 83 -83 83s-83 -37 -83 -83z" />
    <glyph glyph-name="thorn" unicode="&#xfe;" horiz-adv-x="611" 
d="M68 -228v984h90v-350h2c32 49 97 80 165 80c146 0 241 -107 241 -249c0 -140 -94 -249 -241 -249c-64 0 -130 29 -165 80h-2v-296h-90zM314 72c96 0 156 69 156 165s-60 165 -156 165s-156 -69 -156 -165s60 -165 156 -165z" />
    <glyph glyph-name="threequarters" unicode="&#xbe;" horiz-adv-x="834" 
d="M693 0v94h-196v58l183 279h79v-271h62v-66h-62v-94h-66zM693 160v187h-2l-116 -187h118zM192 0l439 740l60 -32l-439 -740zM139 477v66h18c45 0 90 6 90 57c0 32 -27 54 -65 54c-32 0 -58 -16 -69 -45l-83 20c20 63 80 91 148 91c79 0 147 -38 147 -112
c0 -46 -30 -85 -78 -96v-2c58 -7 89 -51 89 -103c0 -80 -73 -124 -155 -124c-76 0 -138 29 -158 99l83 20c10 -33 33 -53 75 -53c41 0 77 26 77 64c0 55 -54 65 -102 64h-17z" />
    <glyph glyph-name="twosuperior" unicode="&#xb2;" horiz-adv-x="361" 
d="M26 289v76l179 160c20 18 45 42 45 73c0 35 -29 56 -65 56c-38 0 -65 -23 -68 -59l-84 6c7 78 69 119 152 119s149 -39 149 -120c0 -53 -30 -89 -71 -124l-141 -121h213v-66h-309z" />
    <glyph glyph-name="registered" unicode="&#xae;" horiz-adv-x="800" 
d="M257 144v425h164c102 0 150 -46 150 -128c0 -74 -44 -110 -102 -117l111 -180h-82l-106 174h-57v-174h-78zM335 503v-119h57c48 0 101 3 101 60s-53 60 -101 59h-57zM28 354c0 205 167 372 372 372s372 -167 372 -372s-167 -372 -372 -372s-372 167 -372 372zM94 354
c0 -169 137 -306 306 -306s306 137 306 306s-137 306 -306 306s-306 -137 -306 -306z" />
    <glyph glyph-name="minus" unicode="&#x2212;" horiz-adv-x="666" 
d="M66 342h534v-78h-534v78z" />
    <glyph glyph-name="eth" unicode="&#xf0;" horiz-adv-x="594" 
d="M423 756l52 -44l-112 -55c103 -110 186 -232 186 -388c0 -169 -93 -281 -252 -281c-141 0 -252 111 -252 249s111 249 252 249c44 0 93 -13 125 -50l2 2c-37 66 -89 126 -144 180l-107 -52l-47 46l106 53l-85 71l79 46l89 -78zM141 237c0 -96 60 -165 156 -165
s156 69 156 165s-60 165 -156 165s-156 -69 -156 -165z" />
    <glyph glyph-name="multiply" unicode="&#xd7;" horiz-adv-x="666" 
d="M68 92l210 211l-212 212l55 55l212 -212l213 212l54 -55l-212 -212l212 -212l-56 -55l-211 212l-211 -212z" />
    <glyph glyph-name="threesuperior" unicode="&#xb3;" horiz-adv-x="361" 
d="M140 477v66h18c45 0 90 6 90 57c0 32 -27 54 -65 54c-32 0 -58 -16 -69 -45l-83 20c20 63 80 91 148 91c79 0 147 -38 147 -112c0 -46 -30 -85 -78 -96v-2c58 -7 89 -51 89 -103c0 -80 -73 -124 -155 -124c-76 0 -138 29 -158 99l83 20c10 -33 33 -53 75 -53
c41 0 77 26 77 64c0 55 -54 65 -102 64h-17z" />
    <glyph glyph-name="copyright" unicode="&#xa9;" horiz-adv-x="800" 
d="M28 354c0 205 167 372 372 372s372 -167 372 -372s-167 -372 -372 -372s-372 167 -372 372zM512 286h77c-21 -95 -90 -157 -186 -157c-139 0 -222 93 -222 228c0 137 78 228 219 228c99 0 173 -52 189 -153h-77c-13 49 -45 81 -111 81c-95 0 -142 -59 -142 -154
c0 -87 53 -158 144 -158c64 0 98 33 109 85zM94 354c0 -169 137 -306 306 -306s306 137 306 306s-137 306 -306 306s-306 -137 -306 -306z" />
    <glyph glyph-name="Aacute" unicode="&#xc1;" horiz-adv-x="704" 
d="M1 0l312 708h87l303 -708h-112l-71 175h-337l-70 -175h-112zM217 259h268l-132 325h-2zM286 748l104 144h128l-149 -144h-83z" />
    <glyph glyph-name="Acircumflex" unicode="&#xc2;" horiz-adv-x="704" 
d="M1 0l312 708h87l303 -708h-112l-71 175h-337l-70 -175h-112zM217 259h268l-132 325h-2zM517 748h-91l-74 96l-74 -96h-91l112 144h106z" />
    <glyph glyph-name="Adieresis" unicode="&#xc4;" horiz-adv-x="704" 
d="M1 0l312 708h87l303 -708h-112l-71 175h-337l-70 -175h-112zM217 259h268l-132 325h-2zM250 898c31 0 62 -24 62 -57c0 -36 -26 -63 -62 -63s-62 27 -62 63c0 33 31 57 62 57zM454 898c31 0 62 -24 62 -57c0 -36 -26 -63 -62 -63s-62 27 -62 63c0 33 31 57 62 57z" />
    <glyph glyph-name="Agrave" unicode="&#xc0;" horiz-adv-x="704" 
d="M1 0l312 708h87l303 -708h-112l-71 175h-337l-70 -175h-112zM217 259h268l-132 325h-2zM314 892l104 -144h-83l-149 144h128z" />
    <glyph glyph-name="Aring" unicode="&#xc5;" horiz-adv-x="704" 
d="M1 0l312 708h87l303 -708h-112l-71 175h-337l-70 -175h-112zM217 259h268l-132 325h-2zM250 825c0 56 48 99 102 99c56 0 103 -43 102 -98c1 -56 -46 -99 -102 -99c-54 0 -102 43 -102 98zM412 825c0 33 -28 57 -60 57s-60 -24 -60 -57c0 -32 29 -56 60 -56s60 24 60 56z
" />
    <glyph glyph-name="Atilde" unicode="&#xc3;" horiz-adv-x="704" 
d="M1 0l312 708h87l303 -708h-112l-71 175h-337l-70 -175h-112zM217 259h268l-132 325h-2zM232 760h-48c9 52 42 104 101 104c30 0 57 -12 84 -23c20 -8 33 -17 54 -17c27 0 42 20 49 44h48c-8 -51 -35 -104 -94 -104c-28 0 -56 11 -81 21c-20 8 -43 19 -66 19
c-25 0 -40 -22 -47 -44z" />
    <glyph glyph-name="Ccedilla" unicode="&#xc7;" horiz-adv-x="704" 
d="M664 616l-80 -61c-40 52 -106 81 -171 81c-159 0 -264 -127 -264 -288c0 -149 99 -276 264 -276c81 0 143 36 185 95l81 -61c-21 -29 -106 -124 -268 -124c-4 0 -8 0 -13 1l-32 -44h29c45 1 92 -22 92 -72c0 -71 -68 -95 -125 -95c-36 0 -72 7 -105 23l19 40
c25 -10 52 -15 78 -15c24 0 61 8 61 42c0 51 -57 44 -94 33l-21 18l52 74c-190 29 -305 199 -305 361c0 220 151 378 369 378c93 0 191 -35 248 -110z" />
    <glyph glyph-name="Eacute" unicode="&#xc9;" horiz-adv-x="611" 
d="M91 0v708h457v-90h-361v-211h336v-90h-336v-227h379v-90h-475zM240 748l104 144h128l-149 -144h-83z" />
    <glyph glyph-name="Ecircumflex" unicode="&#xca;" horiz-adv-x="611" 
d="M91 0v708h457v-90h-361v-211h336v-90h-336v-227h379v-90h-475zM471 748h-91l-74 96l-74 -96h-91l112 144h106z" />
    <glyph glyph-name="Edieresis" unicode="&#xcb;" horiz-adv-x="611" 
d="M91 0v708h457v-90h-361v-211h336v-90h-336v-227h379v-90h-475zM204 898c31 0 62 -24 62 -57c0 -36 -26 -63 -62 -63s-62 27 -62 63c0 33 31 57 62 57zM408 898c31 0 62 -24 62 -57c0 -36 -26 -63 -62 -63s-62 27 -62 63c0 33 31 57 62 57z" />
    <glyph glyph-name="Egrave" unicode="&#xc8;" horiz-adv-x="611" 
d="M91 0v708h457v-90h-361v-211h336v-90h-336v-227h379v-90h-475zM268 892l104 -144h-83l-149 144h128z" />
    <glyph glyph-name="Iacute" unicode="&#xcd;" horiz-adv-x="278" 
d="M91 0v708h96v-708h-96zM73 748l104 144h128l-149 -144h-83z" />
    <glyph glyph-name="Icircumflex" unicode="&#xce;" horiz-adv-x="278" 
d="M91 0v708h96v-708h-96zM304 748h-91l-74 96l-74 -96h-91l112 144h106z" />
    <glyph glyph-name="Idieresis" unicode="&#xcf;" horiz-adv-x="278" 
d="M91 0v708h96v-708h-96zM37 898c31 0 62 -24 62 -57c0 -36 -26 -63 -62 -63s-62 27 -62 63c0 33 31 57 62 57zM241 898c31 0 62 -24 62 -57c0 -36 -26 -63 -62 -63s-62 27 -62 63c0 33 31 57 62 57z" />
    <glyph glyph-name="Igrave" unicode="&#xcc;" horiz-adv-x="278" 
d="M91 0v708h96v-708h-96zM101 892l104 -144h-83l-149 144h128z" />
    <glyph glyph-name="Ntilde" unicode="&#xd1;" horiz-adv-x="796" 
d="M91 0v708h126l390 -582h2v582h96v-708h-122l-394 582h-2v-582h-96zM278 760h-48c9 52 42 104 101 104c30 0 57 -12 84 -23c20 -8 33 -17 54 -17c27 0 42 20 49 44h48c-8 -51 -35 -104 -94 -104c-28 0 -56 11 -81 21c-20 8 -43 19 -66 19c-25 0 -40 -22 -47 -44z" />
    <glyph glyph-name="Oacute" unicode="&#xd3;" horiz-adv-x="832" 
d="M416 -18c-216 0 -369 162 -369 372s153 372 369 372s369 -162 369 -372s-153 -372 -369 -372zM416 72c162 0 267 127 267 282s-105 282 -267 282s-267 -127 -267 -282s105 -282 267 -282zM350 748l104 144h128l-149 -144h-83z" />
    <glyph glyph-name="Ocircumflex" unicode="&#xd4;" horiz-adv-x="832" 
d="M416 -18c-216 0 -369 162 -369 372s153 372 369 372s369 -162 369 -372s-153 -372 -369 -372zM416 72c162 0 267 127 267 282s-105 282 -267 282s-267 -127 -267 -282s105 -282 267 -282zM581 748h-91l-74 96l-74 -96h-91l112 144h106z" />
    <glyph glyph-name="Odieresis" unicode="&#xd6;" horiz-adv-x="832" 
d="M416 -18c-216 0 -369 162 -369 372s153 372 369 372s369 -162 369 -372s-153 -372 -369 -372zM416 72c162 0 267 127 267 282s-105 282 -267 282s-267 -127 -267 -282s105 -282 267 -282zM314 898c31 0 62 -24 62 -57c0 -36 -26 -63 -62 -63s-62 27 -62 63
c0 33 31 57 62 57zM518 898c31 0 62 -24 62 -57c0 -36 -26 -63 -62 -63s-62 27 -62 63c0 33 31 57 62 57z" />
    <glyph glyph-name="Ograve" unicode="&#xd2;" horiz-adv-x="832" 
d="M416 -18c-216 0 -369 162 -369 372s153 372 369 372s369 -162 369 -372s-153 -372 -369 -372zM416 72c162 0 267 127 267 282s-105 282 -267 282s-267 -127 -267 -282s105 -282 267 -282zM378 892l104 -144h-83l-149 144h128z" />
    <glyph glyph-name="Otilde" unicode="&#xd5;" horiz-adv-x="832" 
d="M416 -18c-216 0 -369 162 -369 372s153 372 369 372s369 -162 369 -372s-153 -372 -369 -372zM416 72c162 0 267 127 267 282s-105 282 -267 282s-267 -127 -267 -282s105 -282 267 -282zM296 760h-48c9 52 42 104 101 104c30 0 57 -12 84 -23c20 -8 33 -17 54 -17
c27 0 42 20 49 44h48c-8 -51 -35 -104 -94 -104c-28 0 -56 11 -81 21c-20 8 -43 19 -66 19c-25 0 -40 -22 -47 -44z" />
    <glyph glyph-name="Scaron" unicode="&#x160;" 
d="M33 80l79 68c34 -52 93 -76 150 -76c63 0 141 40 141 118c0 163 -349 62 -349 338c0 83 70 198 240 198c77 0 151 -16 204 -81l-78 -71c-24 37 -71 62 -126 62c-106 0 -138 -64 -138 -108c0 -179 349 -72 349 -327c0 -137 -110 -219 -246 -219c-91 0 -178 31 -226 98z
M225 748l-112 144h87l78 -96l74 96h91l-112 -144h-106z" />
    <glyph glyph-name="Uacute" unicode="&#xda;" horiz-adv-x="704" 
d="M78 708h96v-434c0 -88 44 -202 178 -202s178 114 178 202v434h96v-449c0 -164 -119 -277 -274 -277s-274 113 -274 277v449zM286 748l104 144h128l-149 -144h-83z" />
    <glyph glyph-name="Ucircumflex" unicode="&#xdb;" horiz-adv-x="704" 
d="M78 708h96v-434c0 -88 44 -202 178 -202s178 114 178 202v434h96v-449c0 -164 -119 -277 -274 -277s-274 113 -274 277v449zM517 748h-91l-74 96l-74 -96h-91l112 144h106z" />
    <glyph glyph-name="Udieresis" unicode="&#xdc;" horiz-adv-x="704" 
d="M78 708h96v-434c0 -88 44 -202 178 -202s178 114 178 202v434h96v-449c0 -164 -119 -277 -274 -277s-274 113 -274 277v449zM250 898c31 0 62 -24 62 -57c0 -36 -26 -63 -62 -63s-62 27 -62 63c0 33 31 57 62 57zM454 898c31 0 62 -24 62 -57c0 -36 -26 -63 -62 -63
s-62 27 -62 63c0 33 31 57 62 57z" />
    <glyph glyph-name="Ugrave" unicode="&#xd9;" horiz-adv-x="704" 
d="M78 708h96v-434c0 -88 44 -202 178 -202s178 114 178 202v434h96v-449c0 -164 -119 -277 -274 -277s-274 113 -274 277v449zM314 892l104 -144h-83l-149 144h128z" />
    <glyph glyph-name="Yacute" unicode="&#xdd;" horiz-adv-x="612" 
d="M258 0v302l-268 406h123l193 -311l199 311h117l-268 -406v-302h-96zM240 748l104 144h128l-149 -144h-83z" />
    <glyph glyph-name="Ydieresis" unicode="&#x178;" horiz-adv-x="612" 
d="M258 0v302l-268 406h123l193 -311l199 311h117l-268 -406v-302h-96zM204 898c31 0 62 -24 62 -57c0 -36 -26 -63 -62 -63s-62 27 -62 63c0 33 31 57 62 57zM408 898c31 0 62 -24 62 -57c0 -36 -26 -63 -62 -63s-62 27 -62 63c0 33 31 57 62 57z" />
    <glyph glyph-name="Zcaron" unicode="&#x17d;" horiz-adv-x="593" 
d="M32 0v90l403 528h-391v90h511v-90l-401 -528h407v-90h-529zM244 748l-112 144h87l78 -96l74 96h91l-112 -144h-106z" />
    <glyph glyph-name="aacute" unicode="&#xe1;" horiz-adv-x="519" 
d="M124 360l-54 56c50 47 122 70 188 70c140 0 198 -76 198 -158v-242c0 -33 1 -61 4 -86h-80c-2 24 -3 48 -3 72h-2c-40 -61 -94 -84 -166 -84c-88 0 -164 50 -164 142c0 122 117 164 261 164h66v20c0 49 -36 100 -113 100c-69 0 -102 -29 -135 -54zM372 228h-48
c-85 0 -189 -15 -189 -91c0 -54 40 -77 102 -77c100 0 135 74 135 138v30zM194 564l104 144h128l-149 -144h-83z" />
    <glyph glyph-name="acircumflex" unicode="&#xe2;" horiz-adv-x="519" 
d="M124 360l-54 56c50 47 122 70 188 70c140 0 198 -76 198 -158v-242c0 -33 1 -61 4 -86h-80c-2 24 -3 48 -3 72h-2c-40 -61 -94 -84 -166 -84c-88 0 -164 50 -164 142c0 122 117 164 261 164h66v20c0 49 -36 100 -113 100c-69 0 -102 -29 -135 -54zM372 228h-48
c-85 0 -189 -15 -189 -91c0 -54 40 -77 102 -77c100 0 135 74 135 138v30zM425 564h-91l-74 96l-74 -96h-91l112 144h106z" />
    <glyph glyph-name="adieresis" unicode="&#xe4;" horiz-adv-x="519" 
d="M124 360l-54 56c50 47 122 70 188 70c140 0 198 -76 198 -158v-242c0 -33 1 -61 4 -86h-80c-2 24 -3 48 -3 72h-2c-40 -61 -94 -84 -166 -84c-88 0 -164 50 -164 142c0 122 117 164 261 164h66v20c0 49 -36 100 -113 100c-69 0 -102 -29 -135 -54zM372 228h-48
c-85 0 -189 -15 -189 -91c0 -54 40 -77 102 -77c100 0 135 74 135 138v30zM158 714c31 0 62 -24 62 -57c0 -36 -26 -63 -62 -63s-62 27 -62 63c0 33 31 57 62 57zM362 714c31 0 62 -24 62 -57c0 -36 -26 -63 -62 -63s-62 27 -62 63c0 33 31 57 62 57z" />
    <glyph glyph-name="agrave" unicode="&#xe0;" horiz-adv-x="519" 
d="M124 360l-54 56c50 47 122 70 188 70c140 0 198 -76 198 -158v-242c0 -33 1 -61 4 -86h-80c-2 24 -3 48 -3 72h-2c-40 -61 -94 -84 -166 -84c-88 0 -164 50 -164 142c0 122 117 164 261 164h66v20c0 49 -36 100 -113 100c-69 0 -102 -29 -135 -54zM372 228h-48
c-85 0 -189 -15 -189 -91c0 -54 40 -77 102 -77c100 0 135 74 135 138v30zM222 708l104 -144h-83l-149 144h128z" />
    <glyph glyph-name="aring" unicode="&#xe5;" horiz-adv-x="519" 
d="M124 360l-54 56c50 47 122 70 188 70c140 0 198 -76 198 -158v-242c0 -33 1 -61 4 -86h-80c-2 24 -3 48 -3 72h-2c-40 -61 -94 -84 -166 -84c-88 0 -164 50 -164 142c0 122 117 164 261 164h66v20c0 49 -36 100 -113 100c-69 0 -102 -29 -135 -54zM372 228h-48
c-85 0 -189 -15 -189 -91c0 -54 40 -77 102 -77c100 0 135 74 135 138v30zM158 651c0 56 48 99 102 99c56 0 103 -43 102 -98c1 -56 -46 -99 -102 -99c-54 0 -102 43 -102 98zM320 651c0 33 -28 57 -60 57s-60 -24 -60 -57c0 -32 29 -56 60 -56s60 24 60 56z" />
    <glyph glyph-name="atilde" unicode="&#xe3;" horiz-adv-x="519" 
d="M124 360l-54 56c50 47 122 70 188 70c140 0 198 -76 198 -158v-242c0 -33 1 -61 4 -86h-80c-2 24 -3 48 -3 72h-2c-40 -61 -94 -84 -166 -84c-88 0 -164 50 -164 142c0 122 117 164 261 164h66v20c0 49 -36 100 -113 100c-69 0 -102 -29 -135 -54zM372 228h-48
c-85 0 -189 -15 -189 -91c0 -54 40 -77 102 -77c100 0 135 74 135 138v30zM140 576h-48c9 52 42 104 101 104c30 0 57 -12 84 -23c20 -8 33 -17 54 -17c27 0 42 20 49 44h48c-8 -51 -35 -104 -94 -104c-28 0 -56 11 -81 21c-20 8 -43 19 -66 19c-25 0 -40 -22 -47 -44z" />
    <glyph glyph-name="ccedilla" unicode="&#xe7;" horiz-adv-x="482" 
d="M475 410l-68 -62c-33 35 -68 53 -118 53c-98 0 -148 -79 -148 -168s60 -161 153 -161c50 0 85 18 115 53l64 -64c-45 -50 -106 -71 -172 -72l-36 -50h29c45 1 92 -22 92 -72c0 -71 -68 -95 -125 -95c-36 0 -72 7 -105 23l19 40c25 -10 52 -15 78 -15c24 0 61 8 61 42
c0 51 -57 44 -94 33l-21 18l55 79c-125 15 -209 110 -209 243c0 146 100 250 248 250c69 0 135 -24 182 -75z" />
    <glyph glyph-name="eacute" unicode="&#xe9;" 
d="M516 204h-380c0 -83 77 -138 160 -138c55 0 95 28 130 71l68 -52c-50 -65 -119 -97 -210 -97c-150 0 -244 108 -244 249c0 142 103 249 245 249c167 0 231 -128 231 -250v-32zM136 276h284c-2 79 -46 138 -137 138c-89 0 -147 -75 -147 -138zM212 564l104 144h128
l-149 -144h-83z" />
    <glyph glyph-name="ecircumflex" unicode="&#xea;" 
d="M516 204h-380c0 -83 77 -138 160 -138c55 0 95 28 130 71l68 -52c-50 -65 -119 -97 -210 -97c-150 0 -244 108 -244 249c0 142 103 249 245 249c167 0 231 -128 231 -250v-32zM136 276h284c-2 79 -46 138 -137 138c-89 0 -147 -75 -147 -138zM443 564h-91l-74 96l-74 -96
h-91l112 144h106z" />
    <glyph glyph-name="edieresis" unicode="&#xeb;" 
d="M516 204h-380c0 -83 77 -138 160 -138c55 0 95 28 130 71l68 -52c-50 -65 -119 -97 -210 -97c-150 0 -244 108 -244 249c0 142 103 249 245 249c167 0 231 -128 231 -250v-32zM136 276h284c-2 79 -46 138 -137 138c-89 0 -147 -75 -147 -138zM176 714c31 0 62 -24 62 -57
c0 -36 -26 -63 -62 -63s-62 27 -62 63c0 33 31 57 62 57zM380 714c31 0 62 -24 62 -57c0 -36 -26 -63 -62 -63s-62 27 -62 63c0 33 31 57 62 57z" />
    <glyph glyph-name="egrave" unicode="&#xe8;" 
d="M516 204h-380c0 -83 77 -138 160 -138c55 0 95 28 130 71l68 -52c-50 -65 -119 -97 -210 -97c-150 0 -244 108 -244 249c0 142 103 249 245 249c167 0 231 -128 231 -250v-32zM136 276h284c-2 79 -46 138 -137 138c-89 0 -147 -75 -147 -138zM240 708l104 -144h-83
l-149 144h128z" />
    <glyph glyph-name="iacute" unicode="&#xed;" horiz-adv-x="240" 
d="M75 0v474h90v-474h-90zM54 564l104 144h128l-149 -144h-83z" />
    <glyph glyph-name="icircumflex" unicode="&#xee;" horiz-adv-x="240" 
d="M75 0v474h90v-474h-90zM285 564h-91l-74 96l-74 -96h-91l112 144h106z" />
    <glyph glyph-name="idieresis" unicode="&#xef;" horiz-adv-x="240" 
d="M75 0v474h90v-474h-90zM18 714c31 0 62 -24 62 -57c0 -36 -26 -63 -62 -63s-62 27 -62 63c0 33 31 57 62 57zM222 714c31 0 62 -24 62 -57c0 -36 -26 -63 -62 -63s-62 27 -62 63c0 33 31 57 62 57z" />
    <glyph glyph-name="igrave" unicode="&#xec;" horiz-adv-x="240" 
d="M75 0v474h90v-474h-90zM82 708l104 -144h-83l-149 144h128z" />
    <glyph glyph-name="ntilde" unicode="&#xf1;" 
d="M68 0v474h90v-73h2c23 50 83 85 156 85c92 0 172 -55 172 -181v-305h-90v280c0 89 -51 122 -108 122c-75 0 -132 -48 -132 -158v-244h-90zM158 576h-48c9 52 42 104 101 104c30 0 57 -12 84 -23c20 -8 33 -17 54 -17c27 0 42 20 49 44h48c-8 -51 -35 -104 -94 -104
c-28 0 -56 11 -81 21c-20 8 -43 19 -66 19c-25 0 -40 -22 -47 -44z" />
    <glyph glyph-name="oacute" unicode="&#xf3;" horiz-adv-x="594" 
d="M141 237c0 -96 60 -165 156 -165s156 69 156 165s-60 165 -156 165s-156 -69 -156 -165zM45 237c0 138 111 249 252 249s252 -111 252 -249s-111 -249 -252 -249s-252 111 -252 249zM231 564l104 144h128l-149 -144h-83z" />
    <glyph glyph-name="ocircumflex" unicode="&#xf4;" horiz-adv-x="594" 
d="M141 237c0 -96 60 -165 156 -165s156 69 156 165s-60 165 -156 165s-156 -69 -156 -165zM45 237c0 138 111 249 252 249s252 -111 252 -249s-111 -249 -252 -249s-252 111 -252 249zM462 564h-91l-74 96l-74 -96h-91l112 144h106z" />
    <glyph glyph-name="odieresis" unicode="&#xf6;" horiz-adv-x="594" 
d="M141 237c0 -96 60 -165 156 -165s156 69 156 165s-60 165 -156 165s-156 -69 -156 -165zM45 237c0 138 111 249 252 249s252 -111 252 -249s-111 -249 -252 -249s-252 111 -252 249zM195 714c31 0 62 -24 62 -57c0 -36 -26 -63 -62 -63s-62 27 -62 63c0 33 31 57 62 57z
M399 714c31 0 62 -24 62 -57c0 -36 -26 -63 -62 -63s-62 27 -62 63c0 33 31 57 62 57z" />
    <glyph glyph-name="ograve" unicode="&#xf2;" horiz-adv-x="594" 
d="M141 237c0 -96 60 -165 156 -165s156 69 156 165s-60 165 -156 165s-156 -69 -156 -165zM45 237c0 138 111 249 252 249s252 -111 252 -249s-111 -249 -252 -249s-252 111 -252 249zM259 708l104 -144h-83l-149 144h128z" />
    <glyph glyph-name="otilde" unicode="&#xf5;" horiz-adv-x="594" 
d="M141 237c0 -96 60 -165 156 -165s156 69 156 165s-60 165 -156 165s-156 -69 -156 -165zM45 237c0 138 111 249 252 249s252 -111 252 -249s-111 -249 -252 -249s-252 111 -252 249zM177 576h-48c9 52 42 104 101 104c30 0 57 -12 84 -23c20 -8 33 -17 54 -17
c27 0 42 20 49 44h48c-8 -51 -35 -104 -94 -104c-28 0 -56 11 -81 21c-20 8 -43 19 -66 19c-25 0 -40 -22 -47 -44z" />
    <glyph glyph-name="scaron" unicode="&#x161;" horiz-adv-x="444" 
d="M390 408l-70 -53c-21 26 -52 47 -97 47c-42 0 -79 -19 -79 -53c0 -57 81 -65 121 -74c78 -19 138 -49 138 -138c0 -107 -98 -149 -192 -149c-78 0 -136 20 -183 84l68 56c29 -29 63 -56 115 -56c46 0 96 19 96 60c0 54 -75 64 -114 73c-77 19 -145 44 -145 135
c0 99 91 146 180 146c63 0 128 -22 162 -78zM169 564l-112 144h87l78 -96l74 96h91l-112 -144h-106z" />
    <glyph glyph-name="uacute" unicode="&#xfa;" 
d="M488 474v-474h-90v73h-2c-23 -50 -83 -85 -156 -85c-92 0 -172 55 -172 181v305h90v-280c0 -89 51 -122 108 -122c75 0 132 48 132 158v244h90zM212 564l104 144h128l-149 -144h-83z" />
    <glyph glyph-name="ucircumflex" unicode="&#xfb;" 
d="M488 474v-474h-90v73h-2c-23 -50 -83 -85 -156 -85c-92 0 -172 55 -172 181v305h90v-280c0 -89 51 -122 108 -122c75 0 132 48 132 158v244h90zM443 564h-91l-74 96l-74 -96h-91l112 144h106z" />
    <glyph glyph-name="udieresis" unicode="&#xfc;" 
d="M488 474v-474h-90v73h-2c-23 -50 -83 -85 -156 -85c-92 0 -172 55 -172 181v305h90v-280c0 -89 51 -122 108 -122c75 0 132 48 132 158v244h90zM176 714c31 0 62 -24 62 -57c0 -36 -26 -63 -62 -63s-62 27 -62 63c0 33 31 57 62 57zM380 714c31 0 62 -24 62 -57
c0 -36 -26 -63 -62 -63s-62 27 -62 63c0 33 31 57 62 57z" />
    <glyph glyph-name="ugrave" unicode="&#xf9;" 
d="M488 474v-474h-90v73h-2c-23 -50 -83 -85 -156 -85c-92 0 -172 55 -172 181v305h90v-280c0 -89 51 -122 108 -122c75 0 132 48 132 158v244h90zM240 708l104 -144h-83l-149 144h128z" />
    <glyph glyph-name="yacute" unicode="&#xfd;" horiz-adv-x="500" 
d="M208 -3l-197 477h104l141 -370h2l134 370h97l-225 -576c-32 -82 -63 -138 -162 -138c-27 0 -55 3 -80 13l11 82c17 -7 36 -11 54 -11c57 0 74 31 92 78zM184 564l104 144h128l-149 -144h-83z" />
    <glyph glyph-name="ydieresis" unicode="&#xff;" horiz-adv-x="500" 
d="M208 -3l-197 477h104l141 -370h2l134 370h97l-225 -576c-32 -82 -63 -138 -162 -138c-27 0 -55 3 -80 13l11 82c17 -7 36 -11 54 -11c57 0 74 31 92 78zM148 714c31 0 62 -24 62 -57c0 -36 -26 -63 -62 -63s-62 27 -62 63c0 33 31 57 62 57zM352 714c31 0 62 -24 62 -57
c0 -36 -26 -63 -62 -63s-62 27 -62 63c0 33 31 57 62 57z" />
    <glyph glyph-name="zcaron" unicode="&#x17e;" horiz-adv-x="463" 
d="M35 0v81l269 315h-260v78h370v-80l-271 -316h285v-78h-393zM179 564l-112 144h87l78 -96l74 96h91l-112 -144h-106z" />
    <glyph glyph-name="Delta" unicode="&#x2206;" horiz-adv-x="649" 
d="M30 0v57l246 666h101l241 -665v-58h-588zM119 71h407l-137 366c-17 55 -52 141 -64 187h-4c-9 -38 -41 -116 -58 -171z" />
    <glyph glyph-name="Omega" unicode="&#x2126;" horiz-adv-x="716" 
d="M193 71v3c-69 63 -133 169 -133 308c0 194 128 334 301 334c182 0 293 -160 293 -329c0 -143 -67 -255 -134 -313v-3h148v-71h-245v53c73 48 144 156 144 317c-1 131 -71 273 -207 273c-129 0 -212 -121 -212 -276c0 -150 71 -268 144 -314v-53h-246v71h147z" />
    <glyph glyph-name="uni03BC" unicode="&#x3bc;" 
d="M68 -228v702h90v-280c0 -89 51 -122 108 -122c75 0 132 48 132 158v244h90v-474h-90v73h-2c-23 -50 -83 -85 -156 -85c-30 0 -58 6 -82 18v-234h-90z" />
    <glyph glyph-name="pi" unicode="&#x3c0;" horiz-adv-x="577" 
d="M551 451h-78v-302c0 -82 7 -121 14 -149h-84c-10 18 -17 62 -17 142v309h-171c-6 -125 -35 -353 -72 -451h-84c37 111 66 321 70 451c-59 0 -87 -4 -108 -12l-13 58c25 17 70 29 148 29h403z" />
    <glyph glyph-name="Euro" unicode="&#x20ac;" 
d="M504 609l21 75c-35 21 -92 36 -148 36c-132 0 -238 -77 -275 -237h-57l-21 -67h66c-2 -22 -3 -45 -3 -70v-27c0 -8 0 -16 1 -24h-46l-19 -65h72c25 -159 107 -242 250 -242c77 0 143 37 178 84l-49 49c-29 -35 -69 -59 -125 -59c-100 0 -150 56 -167 168h219l17 65h-242
c-1 7 -1 15 -1 23v25c0 27 1 50 4 73h271l17 67h-276c29 108 95 160 182 160c55 0 100 -11 131 -34z" />
    <glyph glyph-name="afii61289" unicode="&#x2113;" horiz-adv-x="492" 
d="M430 158l39 -36c-46 -89 -113 -129 -191 -129c-116 0 -163 84 -169 182v13c-17 -14 -37 -31 -56 -46l-25 49c29 25 56 46 80 70v271c0 183 80 246 160 246c87 0 127 -75 127 -167c0 -126 -81 -245 -204 -366v-36c1 -104 50 -147 105 -147c61 0 108 51 134 96zM191 537
v-208c83 92 146 188 146 282c0 61 -18 102 -68 102c-36 0 -78 -42 -78 -176z" />
    <glyph glyph-name="estimated" unicode="&#x212e;" horiz-adv-x="883" 
d="M847 344h-658c-3 0 -5 -1 -5 -5v-199c0 -8 3 -16 8 -23c64 -66 152 -108 249 -108c105 0 198 48 262 121h59c-73 -85 -191 -141 -322 -141c-224 0 -406 163 -406 365s182 366 406 366c225 0 407 -164 407 -366v-10zM698 370v200c0 9 -3 17 -10 24
c-64 63 -150 104 -247 104c-96 0 -184 -42 -248 -107c-6 -7 -9 -16 -9 -25v-196c0 -2 2 -7 5 -7h505c3 0 4 5 4 7z" />
    <glyph glyph-name="partialdiff" unicode="&#x2202;" horiz-adv-x="552" 
d="M102 672l-28 64c33 26 86 57 170 57c134 0 258 -123 258 -382c0 -241 -92 -419 -265 -419c-132 0 -195 121 -195 235c0 159 99 259 213 259c90 0 145 -63 161 -92h1c1 11 1 30 1 42c0 166 -81 285 -183 285c-62 0 -105 -26 -133 -49zM245 65h1c90 0 149 121 161 247
c-13 41 -63 104 -137 104c-79 0 -143 -87 -143 -190c0 -93 46 -161 118 -161z" />
    <glyph glyph-name="product" unicode="&#x220f;" horiz-adv-x="704" 
d="M677 626h-107v-723h-86v723h-266v-723h-85v723h-107v79h651v-79z" />
    <glyph glyph-name="summation" unicode="&#x2211;" horiz-adv-x="554" 
d="M532 -97h-509v57l263 343l-252 341v61h483v-74h-364v-4l231 -311l-252 -328v-4h400v-81z" />
    <glyph glyph-name="uni2219" unicode="&#x2219;" horiz-adv-x="278" 
d="M73 303c0 36 30 66 66 66s66 -30 66 -66s-30 -66 -66 -66s-66 30 -66 66z" />
    <glyph glyph-name="radical" unicode="&#x221a;" horiz-adv-x="577" 
d="M578 840l-222 -989h-74l-158 463l-74 -28l-16 51l144 57l122 -363c6 -27 14 -56 18 -77h1c3 20 9 50 14 78l183 808h62z" />
    <glyph glyph-name="infinity" unicode="&#x221e;" horiz-adv-x="780" 
d="M729 293v-1c0 -100 -75 -163 -155 -163c-62 0 -114 37 -183 119c-53 -62 -107 -119 -189 -119s-152 68 -152 159c0 94 68 162 159 162c76 0 132 -54 185 -118c50 55 101 118 187 118c87 0 148 -64 148 -157zM209 182h1c63 0 111 60 152 104c-44 55 -88 113 -158 113
c-63 0 -99 -51 -99 -112c0 -58 43 -105 104 -105zM575 399h-1c-66 0 -118 -72 -152 -108c65 -74 102 -109 155 -109c62 0 97 55 97 106c0 69 -42 111 -99 111z" />
    <glyph glyph-name="integral" unicode="&#x222b;" horiz-adv-x="367" 
d="M349 851l-13 -61c-9 6 -23 10 -36 10c-17 0 -38 -7 -51 -24c-24 -30 -32 -85 -32 -178c0 -159 14 -335 14 -503c0 -106 -19 -167 -42 -204c-23 -39 -65 -56 -106 -56c-27 0 -55 9 -68 16l14 63c9 -4 25 -12 45 -12c16 0 34 8 46 23c19 25 32 70 32 170
c0 170 -14 349 -14 511c0 112 15 175 55 217c26 28 64 41 100 41c22 0 45 -7 56 -13z" />
    <glyph glyph-name="approxequal" unicode="&#x2248;" horiz-adv-x="561" 
d="M481 439l34 -30c-28 -55 -70 -98 -130 -98c-41 0 -69 15 -116 42c-31 18 -59 34 -92 34c-46 0 -73 -35 -98 -74l-35 29c30 59 80 98 139 98c49 0 84 -26 111 -40c36 -20 58 -36 93 -36c41 0 66 27 94 75zM481 264l34 -30c-28 -54 -69 -97 -130 -97c-41 0 -69 15 -116 42
c-31 18 -59 34 -92 34c-47 0 -73 -36 -98 -75l-35 30c30 59 81 98 139 98c50 0 84 -26 111 -40c33 -18 58 -36 93 -36c41 0 66 27 94 74z" />
    <glyph glyph-name="notequal" unicode="&#x2260;" horiz-adv-x="561" 
d="M401 509l-44 -96h153v-54h-174l-66 -145h240v-54h-261l-53 -117l-43 19l44 98h-147v54h169l65 145h-234v54h256l52 115z" />
    <glyph glyph-name="lessequal" unicode="&#x2264;" horiz-adv-x="561" 
d="M507 98l-451 226v58l451 226v-65l-394 -188v-2l394 -190v-65zM510 2h-459v56h459v-56z" />
    <glyph glyph-name="greaterequal" unicode="&#x2265;" horiz-adv-x="561" 
d="M57 608l451 -226v-58l-451 -226v65l394 189v2l-394 189v65zM509 2h-457v56h457v-56z" />
    <glyph glyph-name="lozenge" unicode="&#x25ca;" horiz-adv-x="577" 
d="M523 352l-201 -398h-70l-198 398l201 399h70zM445 350l-137 273c-7 18 -15 40 -18 55h-3c-5 -16 -11 -36 -20 -55l-135 -269l137 -276c8 -20 15 -40 17 -53h4c4 13 12 40 18 52z" />
    <glyph glyph-name="uni00A0" unicode="&#xa0;" horiz-adv-x="278" 
 />
    <glyph glyph-name="uni00AD" unicode="&#xad;" horiz-adv-x="316" 
d="M281 284v-84h-246v84h246z" />
    <glyph glyph-name="uni02C9" unicode="&#x2c9;" horiz-adv-x="240" 
d="M264 666v-66h-288v66h288z" />
    <glyph glyph-name="uni03A9" unicode="&#x3a9;" horiz-adv-x="716" 
d="M193 71v3c-69 63 -133 169 -133 308c0 194 128 334 301 334c182 0 293 -160 293 -329c0 -143 -67 -255 -134 -313v-3h148v-71h-245v53c73 48 144 156 144 317c-1 131 -71 273 -207 273c-129 0 -212 -121 -212 -276c0 -150 71 -268 144 -314v-53h-246v71h147z" />
    <glyph glyph-name="uni2215" unicode="&#x2215;" horiz-adv-x="167" 
d="M333 708l-439 -740l-60 32l439 740z" />
    <hkern u1="&#x2019;" u2="&#x2019;" k="101" />
    <hkern u1="T" u2="&#xfc;" k="51" />
    <hkern u1="T" u2="&#x161;" k="28" />
    <hkern u1="T" u2="&#xf2;" k="56" />
    <hkern u1="T" u2="&#xf6;" k="56" />
    <hkern u1="T" u2="&#xe8;" k="83" />
    <hkern u1="T" u2="&#xeb;" k="56" />
    <hkern u1="T" u2="&#xea;" k="83" />
    <hkern u1="T" u2="&#xe3;" k="56" />
    <hkern u1="T" u2="&#xe5;" k="56" />
    <hkern u1="T" u2="&#xe0;" k="56" />
    <hkern u1="T" u2="&#xe4;" k="28" />
    <hkern u1="T" u2="&#xe2;" k="56" />
    <hkern u1="V" u2="&#xf6;" k="28" />
    <hkern u1="V" u2="&#xf4;" k="41" />
    <hkern u1="V" u2="&#xee;" k="-4" />
    <hkern u1="V" u2="&#xe8;" k="28" />
    <hkern u1="V" u2="&#xeb;" k="28" />
    <hkern u1="V" u2="&#xea;" k="28" />
    <hkern u1="V" u2="&#xe3;" k="28" />
    <hkern u1="V" u2="&#xe5;" k="28" />
    <hkern u1="V" u2="&#xe0;" k="28" />
    <hkern u1="V" u2="&#xe4;" k="28" />
    <hkern u1="V" u2="&#xe2;" k="28" />
    <hkern u1="W" u2="&#xfc;" k="14" />
    <hkern u1="W" u2="&#xf6;" k="35" />
    <hkern u1="W" u2="&#xea;" k="35" />
    <hkern u1="W" u2="&#xe4;" k="35" />
    <hkern u1="Y" u2="&#xfc;" k="56" />
    <hkern u1="Y" u2="&#xf6;" k="83" />
    <hkern u1="&#x2018;" u2="&#x2018;" k="101" />
    <hkern g1="A,Aacute,Acircumflex,Adieresis,Agrave,Aring,Atilde"
	g2="T"
	k="92" />
    <hkern g1="A,Aacute,Acircumflex,Adieresis,Agrave,Aring,Atilde"
	g2="v"
	k="18" />
    <hkern g1="A,Aacute,Acircumflex,Adieresis,Agrave,Aring,Atilde"
	g2="V"
	k="46" />
    <hkern g1="A,Aacute,Acircumflex,Adieresis,Agrave,Aring,Atilde"
	g2="w"
	k="18" />
    <hkern g1="A,Aacute,Acircumflex,Adieresis,Agrave,Aring,Atilde"
	g2="W"
	k="24" />
    <hkern g1="A,Aacute,Acircumflex,Adieresis,Agrave,Aring,Atilde"
	g2="y,yacute,ydieresis"
	k="18" />
    <hkern g1="A,Aacute,Acircumflex,Adieresis,Agrave,Aring,Atilde"
	g2="Y,Yacute,Ydieresis"
	k="74" />
    <hkern g1="A,Aacute,Acircumflex,Adieresis,Agrave,Aring,Atilde"
	g2="quoteright"
	k="74" />
    <hkern g1="f,fi,fl"
	g2="quoteright"
	k="-18" />
    <hkern g1="f,fi,fl"
	g2="f,fi,fl,germandbls"
	k="18" />
    <hkern g1="F"
	g2="A,AE,Aacute,Acircumflex,Adieresis,Agrave,Aring,Atilde"
	k="55" />
    <hkern g1="F"
	g2="comma"
	k="157" />
    <hkern g1="F"
	g2="period"
	k="157" />
    <hkern g1="L,Lslash"
	g2="T"
	k="92" />
    <hkern g1="L,Lslash"
	g2="V"
	k="92" />
    <hkern g1="L,Lslash"
	g2="W"
	k="55" />
    <hkern g1="L,Lslash"
	g2="y,yacute,ydieresis"
	k="37" />
    <hkern g1="L,Lslash"
	g2="Y,Yacute,Ydieresis"
	k="111" />
    <hkern g1="L,Lslash"
	g2="quoteright"
	k="111" />
    <hkern g1="P"
	g2="A,AE,Aacute,Acircumflex,Adieresis,Agrave,Aring,Atilde"
	k="74" />
    <hkern g1="P"
	g2="comma"
	k="179" />
    <hkern g1="P"
	g2="period"
	k="179" />
    <hkern g1="r"
	g2="comma"
	k="92" />
    <hkern g1="r"
	g2="period"
	k="92" />
    <hkern g1="r"
	g2="c,ccedilla"
	k="18" />
    <hkern g1="r"
	g2="d,dotlessi"
	k="18" />
    <hkern g1="r"
	g2="e,eacute,ecircumflex,edieresis,egrave"
	k="18" />
    <hkern g1="r"
	g2="g"
	k="18" />
    <hkern g1="r"
	g2="o,oslash,oe,oacute,ocircumflex,odieresis,ograve,otilde"
	k="18" />
    <hkern g1="r"
	g2="q"
	k="18" />
    <hkern g1="r"
	g2="hyphen"
	k="55" />
    <hkern g1="R"
	g2="T"
	k="18" />
    <hkern g1="R"
	g2="Y,Yacute,Ydieresis"
	k="18" />
    <hkern g1="T"
	g2="w"
	k="111" />
    <hkern g1="T"
	g2="y,yacute,ydieresis"
	k="111" />
    <hkern g1="T"
	g2="A,AE,Aacute,Acircumflex,Adieresis,Agrave,Aring,Atilde"
	k="92" />
    <hkern g1="T"
	g2="comma"
	k="111" />
    <hkern g1="T"
	g2="period"
	k="111" />
    <hkern g1="T"
	g2="c,ccedilla"
	k="111" />
    <hkern g1="T"
	g2="e,eacute,ecircumflex,edieresis,egrave"
	k="111" />
    <hkern g1="T"
	g2="o,oslash,oe,oacute,ocircumflex,odieresis,ograve,otilde"
	k="111" />
    <hkern g1="T"
	g2="hyphen"
	k="129" />
    <hkern g1="T"
	g2="a,ae,aacute,acircumflex,adieresis,agrave,aring,atilde"
	k="111" />
    <hkern g1="T"
	g2="r"
	k="92" />
    <hkern g1="T"
	g2="s,scaron"
	k="111" />
    <hkern g1="T"
	g2="u,uacute,ucircumflex,udieresis,ugrave"
	k="101" />
    <hkern g1="T"
	g2="colon"
	k="111" />
    <hkern g1="T"
	g2="semicolon"
	k="111" />
    <hkern g1="v"
	g2="comma"
	k="74" />
    <hkern g1="v"
	g2="period"
	k="74" />
    <hkern g1="V"
	g2="y,yacute,ydieresis"
	k="18" />
    <hkern g1="V"
	g2="A,AE,Aacute,Acircumflex,Adieresis,Agrave,Aring,Atilde"
	k="46" />
    <hkern g1="V"
	g2="comma"
	k="129" />
    <hkern g1="V"
	g2="period"
	k="129" />
    <hkern g1="V"
	g2="e,eacute,ecircumflex,edieresis,egrave"
	k="55" />
    <hkern g1="V"
	g2="o,oslash,oe,oacute,ocircumflex,odieresis,ograve,otilde"
	k="55" />
    <hkern g1="V"
	g2="hyphen"
	k="55" />
    <hkern g1="V"
	g2="a,ae,aacute,acircumflex,adieresis,agrave,aring,atilde"
	k="55" />
    <hkern g1="V"
	g2="r"
	k="37" />
    <hkern g1="V"
	g2="u,uacute,ucircumflex,udieresis,ugrave"
	k="37" />
    <hkern g1="V"
	g2="colon"
	k="46" />
    <hkern g1="V"
	g2="semicolon"
	k="46" />
    <hkern g1="V"
	g2="i,iacute,icircumflex,idieresis,igrave"
	k="18" />
    <hkern g1="w"
	g2="comma"
	k="55" />
    <hkern g1="w"
	g2="period"
	k="55" />
    <hkern g1="W"
	g2="A,AE,Aacute,Acircumflex,Adieresis,Agrave,Aring,Atilde"
	k="24" />
    <hkern g1="W"
	g2="comma"
	k="90" />
    <hkern g1="W"
	g2="period"
	k="90" />
    <hkern g1="W"
	g2="e,eacute,ecircumflex,edieresis,egrave"
	k="47" />
    <hkern g1="W"
	g2="o,oslash,oe,oacute,ocircumflex,odieresis,ograve,otilde"
	k="47" />
    <hkern g1="W"
	g2="a,ae,aacute,acircumflex,adieresis,agrave,aring,atilde"
	k="47" />
    <hkern g1="W"
	g2="r"
	k="18" />
    <hkern g1="W"
	g2="u,uacute,ucircumflex,udieresis,ugrave"
	k="18" />
    <hkern g1="W"
	g2="colon"
	k="18" />
    <hkern g1="W"
	g2="semicolon"
	k="18" />
    <hkern g1="y,yacute,ydieresis"
	g2="comma"
	k="74" />
    <hkern g1="y,yacute,ydieresis"
	g2="period"
	k="74" />
    <hkern g1="Y,Yacute,Ydieresis"
	g2="v"
	k="55" />
    <hkern g1="Y,Yacute,Ydieresis"
	g2="A,AE,Aacute,Acircumflex,Adieresis,Agrave,Aring,Atilde"
	k="74" />
    <hkern g1="Y,Yacute,Ydieresis"
	g2="comma"
	k="139" />
    <hkern g1="Y,Yacute,Ydieresis"
	g2="period"
	k="139" />
    <hkern g1="Y,Yacute,Ydieresis"
	g2="e,eacute,ecircumflex,edieresis,egrave"
	k="111" />
    <hkern g1="Y,Yacute,Ydieresis"
	g2="o,oslash,oe,oacute,ocircumflex,odieresis,ograve,otilde"
	k="111" />
    <hkern g1="Y,Yacute,Ydieresis"
	g2="q"
	k="92" />
    <hkern g1="Y,Yacute,Ydieresis"
	g2="hyphen"
	k="111" />
    <hkern g1="Y,Yacute,Ydieresis"
	g2="a,ae,aacute,acircumflex,adieresis,agrave,aring,atilde"
	k="92" />
    <hkern g1="Y,Yacute,Ydieresis"
	g2="u,uacute,ucircumflex,udieresis,ugrave"
	k="74" />
    <hkern g1="Y,Yacute,Ydieresis"
	g2="colon"
	k="92" />
    <hkern g1="Y,Yacute,Ydieresis"
	g2="semicolon"
	k="92" />
    <hkern g1="Y,Yacute,Ydieresis"
	g2="i,iacute,icircumflex,idieresis,igrave"
	k="37" />
    <hkern g1="Y,Yacute,Ydieresis"
	g2="p"
	k="74" />
    <hkern g1="quoteright"
	g2="s,scaron"
	k="74" />
    <hkern g1="quoteright"
	g2="t"
	k="18" />
  </font>
</defs></svg>
